{"failedCount":0,"prefixedPath":"src\/test\/java\/Sample\/GetUser.feature","packageQualifiedName":"src.test.java.Sample.GetUser","loopIndex":-1,"relativePath":"src\/test\/java\/Sample\/GetUser.feature","scenarioResults":[{"sectionIndex":0,"stepResults":[{"result":{"nanos":224113600,"millis":224.1136,"status":"passed"},"step":{"background":true,"line":4,"prefix":"*","index":0,"text":"url 'https:\/\/reqres.in\/api'"}},{"result":{"nanos":2035600,"millis":2.0356,"status":"passed"},"step":{"background":true,"line":5,"prefix":"*","index":1,"text":"header Accept = 'application\/json'"}},{"result":{"nanos":1341500,"millis":1.3415,"status":"passed"},"step":{"line":9,"prefix":"Given","index":0,"text":"url 'https:\/\/reqres.in\/api\/users?page=2'"}},{"result":{"nanos":1796828200,"millis":1796.8282,"status":"passed"},"step":{"line":10,"prefix":"When","index":1,"text":"method Get"},"stepLog":"21:12:51.700 request:\n1 > GET https:\/\/reqres.in\/api\/users?page=2\n1 > Accept: application\/json\n1 > Host: reqres.in\n1 > Connection: Keep-Alive\n1 > User-Agent: Apache-HttpClient\/4.5.13 (Java\/17.0.5)\n1 > Accept-Encoding: gzip,deflate\n\n\n21:12:52.642 response time in milliseconds: 935\n1 < 200\n1 < Date: Tue, 29 Nov 2022 15:12:53 GMT\n1 < Content-Type: application\/json; charset=utf-8\n1 < Transfer-Encoding: chunked\n1 < Connection: keep-alive\n1 < X-Powered-By: Express\n1 < Access-Control-Allow-Origin: *\n1 < Etag: W\/\"406-ut0vzoCuidvyMf8arZpMpJ6ZRDw\"\n1 < Via: 1.1 vegur\n1 < Cache-Control: max-age=14400\n1 < CF-Cache-Status: HIT\n1 < Age: 2720\n1 < Report-To: {\"endpoints\":[{\"url\":\"https:\\\/\\\/a.nel.cloudflare.com\\\/report\\\/v3?s=IgVFjdfENtKKkGCq4QvXOEcBDpw365u5i%2BXxq5pasYLjiDjdjsBzcAqpS5PjdNM%2F4H3Ufvzd2o4lEodmJeIJU5MkzCoLbrPzsev5y8LPn6wTPsEzePinptnQww%3D%3D\"}],\"group\":\"cf-nel\",\"max_age\":604800}\n1 < NEL: {\"success_fraction\":0,\"report_to\":\"cf-nel\",\"max_age\":604800}\n1 < Vary: Accept-Encoding\n1 < Server: cloudflare\n1 < CF-RAY: 771c48be2ab049b4-SIN\n{\"page\":2,\"per_page\":6,\"total\":12,\"total_pages\":2,\"data\":[{\"id\":7,\"email\":\"michael.lawson@reqres.in\",\"first_name\":\"Michael\",\"last_name\":\"Lawson\",\"avatar\":\"https:\/\/reqres.in\/img\/faces\/7-image.jpg\"},{\"id\":8,\"email\":\"lindsay.ferguson@reqres.in\",\"first_name\":\"Lindsay\",\"last_name\":\"Ferguson\",\"avatar\":\"https:\/\/reqres.in\/img\/faces\/8-image.jpg\"},{\"id\":9,\"email\":\"tobias.funke@reqres.in\",\"first_name\":\"Tobias\",\"last_name\":\"Funke\",\"avatar\":\"https:\/\/reqres.in\/img\/faces\/9-image.jpg\"},{\"id\":10,\"email\":\"byron.fields@reqres.in\",\"first_name\":\"Byron\",\"last_name\":\"Fields\",\"avatar\":\"https:\/\/reqres.in\/img\/faces\/10-image.jpg\"},{\"id\":11,\"email\":\"george.edwards@reqres.in\",\"first_name\":\"George\",\"last_name\":\"Edwards\",\"avatar\":\"https:\/\/reqres.in\/img\/faces\/11-image.jpg\"},{\"id\":12,\"email\":\"rachel.howell@reqres.in\",\"first_name\":\"Rachel\",\"last_name\":\"Howell\",\"avatar\":\"https:\/\/reqres.in\/img\/faces\/12-image.jpg\"}],\"support\":{\"url\":\"https:\/\/reqres.in\/#support-heading\",\"text\":\"To keep ReqRes free, contributions towards server costs are appreciated!\"}}\n\n"},{"result":{"nanos":46000,"millis":0.046,"status":"passed"},"step":{"line":11,"prefix":"Then","index":2,"text":"status 200"}},{"result":{"nanos":264360600,"millis":264.3606,"status":"passed"},"step":{"line":12,"prefix":"And","index":3,"text":"print response.data"},"stepLog":"21:12:53.006 [print] [\n  {\n    \"id\": 7,\n    \"email\": \"michael.lawson@reqres.in\",\n    \"first_name\": \"Michael\",\n    \"last_name\": \"Lawson\",\n    \"avatar\": \"https:\/\/reqres.in\/img\/faces\/7-image.jpg\"\n  },\n  {\n    \"id\": 8,\n    \"email\": \"lindsay.ferguson@reqres.in\",\n    \"first_name\": \"Lindsay\",\n    \"last_name\": \"Ferguson\",\n    \"avatar\": \"https:\/\/reqres.in\/img\/faces\/8-image.jpg\"\n  },\n  {\n    \"id\": 9,\n    \"email\": \"tobias.funke@reqres.in\",\n    \"first_name\": \"Tobias\",\n    \"last_name\": \"Funke\",\n    \"avatar\": \"https:\/\/reqres.in\/img\/faces\/9-image.jpg\"\n  },\n  {\n    \"id\": 10,\n    \"email\": \"byron.fields@reqres.in\",\n    \"first_name\": \"Byron\",\n    \"last_name\": \"Fields\",\n    \"avatar\": \"https:\/\/reqres.in\/img\/faces\/10-image.jpg\"\n  },\n  {\n    \"id\": 11,\n    \"email\": \"george.edwards@reqres.in\",\n    \"first_name\": \"George\",\n    \"last_name\": \"Edwards\",\n    \"avatar\": \"https:\/\/reqres.in\/img\/faces\/11-image.jpg\"\n  },\n  {\n    \"id\": 12,\n    \"email\": \"rachel.howell@reqres.in\",\n    \"first_name\": \"Rachel\",\n    \"last_name\": \"Howell\",\n    \"avatar\": \"https:\/\/reqres.in\/img\/faces\/12-image.jpg\"\n  }\n]\n \n"},{"result":{"nanos":26513200,"millis":26.5132,"status":"passed"},"step":{"line":13,"prefix":"And","index":4,"text":"print response.data[4]"},"stepLog":"21:12:53.035 [print] {\n  \"id\": 11,\n  \"email\": \"george.edwards@reqres.in\",\n  \"first_name\": \"George\",\n  \"last_name\": \"Edwards\",\n  \"avatar\": \"https:\/\/reqres.in\/img\/faces\/11-image.jpg\"\n}\n \n"},{"result":{"nanos":94621800,"millis":94.6218,"status":"passed"},"step":{"line":14,"prefix":"And","index":5,"text":"match response.data[0].first_name != null"}},{"result":{"nanos":8118200,"millis":8.1182,"status":"passed"},"step":{"line":15,"prefix":"And","index":6,"text":"match $.data[3].id == 10"}},{"result":{"nanos":2522600,"millis":2.5226,"status":"passed"},"step":{"line":16,"prefix":"And","index":7,"text":"match response.data[4].last_name == 'Edwards'"}},{"result":{"nanos":2311200,"millis":2.3112,"status":"passed"},"step":{"line":17,"prefix":"And","index":8,"text":"match response.page == 2"}},{"result":{"nanos":2463800,"millis":2.4638,"status":"passed"},"step":{"line":18,"prefix":"And","index":9,"text":"match response.per_page == 6"}},{"result":{"nanos":18874400,"millis":18.8744,"status":"passed"},"step":{"line":19,"prefix":"And","index":10,"text":"assert response.data.length == 6"}}],"executorName":"main","line":8,"name":"Perform get request for List User","description":"","durationMillis":2444.1507,"startTime":1669734770668,"failed":false,"refId":"[1:8]","endTime":1669734773166,"exampleIndex":-1},{"sectionIndex":1,"stepResults":[{"result":{"nanos":565900,"millis":0.5659,"status":"passed"},"step":{"background":true,"line":4,"prefix":"*","index":0,"text":"url 'https:\/\/reqres.in\/api'"}},{"result":{"nanos":349400,"millis":0.3494,"status":"passed"},"step":{"background":true,"line":5,"prefix":"*","index":1,"text":"header Accept = 'application\/json'"}},{"result":{"nanos":996300,"millis":0.9963,"status":"passed"},"step":{"line":23,"prefix":"Given","index":0,"text":"path '\/users?page=2'"}},{"result":{"nanos":272732000,"millis":272.732,"status":"passed"},"step":{"line":24,"prefix":"When","index":1,"text":"method GET"},"stepLog":"21:12:53.188 request:\n1 > GET https:\/\/reqres.in\/api\/users%3Fpage=2\n1 > Accept: application\/json\n1 > Host: reqres.in\n1 > Connection: Keep-Alive\n1 > User-Agent: Apache-HttpClient\/4.5.13 (Java\/17.0.5)\n1 > Accept-Encoding: gzip,deflate\n\n\n21:12:53.456 response time in milliseconds: 267\n1 < 200\n1 < Date: Tue, 29 Nov 2022 15:12:54 GMT\n1 < Content-Type: application\/json; charset=utf-8\n1 < Transfer-Encoding: chunked\n1 < Connection: keep-alive\n1 < X-Powered-By: Express\n1 < Access-Control-Allow-Origin: *\n1 < Etag: W\/\"2c1-N6Rqerxquq2kgQhL51EiSg4x0R8\"\n1 < Via: 1.1 vegur\n1 < Cache-Control: max-age=14400\n1 < CF-Cache-Status: HIT\n1 < Age: 253\n1 < Report-To: {\"endpoints\":[{\"url\":\"https:\\\/\\\/a.nel.cloudflare.com\\\/report\\\/v3?s=or6kLGJ8ZEgSO8d%2FDBG2nNVIzRDbj%2F%2FM%2Be1H8pUdyi8wTre5uqD5ilhP5R2h7N0HCkiG9hW8lVI28Uy59oN1Jv12GAj6dhzdw6%2F8jVcilOT16lmLWcOSHT3BxA%3D%3D\"}],\"group\":\"cf-nel\",\"max_age\":604800}\n1 < NEL: {\"success_fraction\":0,\"report_to\":\"cf-nel\",\"max_age\":604800}\n1 < Vary: Accept-Encoding\n1 < Server: cloudflare\n1 < CF-RAY: 771c48c359e589b8-SIN\n{\"page\":1,\"per_page\":6,\"total\":12,\"total_pages\":2,\"data\":[{\"id\":1,\"name\":\"cerulean\",\"year\":2000,\"color\":\"#98B2D1\",\"pantone_value\":\"15-4020\"},{\"id\":2,\"name\":\"fuchsia rose\",\"year\":2001,\"color\":\"#C74375\",\"pantone_value\":\"17-2031\"},{\"id\":3,\"name\":\"true red\",\"year\":2002,\"color\":\"#BF1932\",\"pantone_value\":\"19-1664\"},{\"id\":4,\"name\":\"aqua sky\",\"year\":2003,\"color\":\"#7BC4C4\",\"pantone_value\":\"14-4811\"},{\"id\":5,\"name\":\"tigerlily\",\"year\":2004,\"color\":\"#E2583E\",\"pantone_value\":\"17-1456\"},{\"id\":6,\"name\":\"blue turquoise\",\"year\":2005,\"color\":\"#53B0AE\",\"pantone_value\":\"15-5217\"}],\"support\":{\"url\":\"https:\/\/reqres.in\/#support-heading\",\"text\":\"To keep ReqRes free, contributions towards server costs are appreciated!\"}}\n\n"},{"result":{"nanos":28200,"millis":0.0282,"status":"passed"},"step":{"line":25,"prefix":"Then","index":2,"text":"status 200"}},{"result":{"nanos":3313000,"millis":3.313,"status":"passed"},"step":{"line":26,"prefix":"*","index":3,"text":"print response.data[3]"},"stepLog":"21:12:53.461 [print] {\n  \"id\": 4,\n  \"name\": \"aqua sky\",\n  \"year\": 2003,\n  \"color\": \"#7BC4C4\",\n  \"pantone_value\": \"14-4811\"\n}\n \n"}],"executorName":"main","line":22,"name":"Get API with background","description":"","durationMillis":277.9848,"startTime":1669734773180,"failed":false,"refId":"[2:22]","endTime":1669734773461,"exampleIndex":-1},{"sectionIndex":2,"stepResults":[{"result":{"nanos":519600,"millis":0.5196,"status":"passed"},"step":{"background":true,"line":4,"prefix":"*","index":0,"text":"url 'https:\/\/reqres.in\/api'"}},{"result":{"nanos":364600,"millis":0.3646,"status":"passed"},"step":{"background":true,"line":5,"prefix":"*","index":1,"text":"header Accept = 'application\/json'"}},{"result":{"nanos":1256000,"millis":1.256,"status":"passed"},"step":{"line":29,"prefix":"Given","index":0,"text":"path '\/users'"}},{"result":{"nanos":5623500,"millis":5.6235,"status":"passed"},"step":{"line":30,"prefix":"And","index":1,"text":"param page = 2"}},{"result":{"nanos":213550700,"millis":213.5507,"status":"passed"},"step":{"line":31,"prefix":"When","index":2,"text":"method GET"},"stepLog":"21:12:53.488 request:\n1 > GET https:\/\/reqres.in\/api\/users?page=2\n1 > Accept: application\/json\n1 > Host: reqres.in\n1 > Connection: Keep-Alive\n1 > User-Agent: Apache-HttpClient\/4.5.13 (Java\/17.0.5)\n1 > Accept-Encoding: gzip,deflate\n\n\n21:12:53.694 response time in milliseconds: 206\n1 < 200\n1 < Date: Tue, 29 Nov 2022 15:12:54 GMT\n1 < Content-Type: application\/json; charset=utf-8\n1 < Transfer-Encoding: chunked\n1 < Connection: keep-alive\n1 < X-Powered-By: Express\n1 < Access-Control-Allow-Origin: *\n1 < Etag: W\/\"406-ut0vzoCuidvyMf8arZpMpJ6ZRDw\"\n1 < Via: 1.1 vegur\n1 < Cache-Control: max-age=14400\n1 < CF-Cache-Status: HIT\n1 < Age: 2391\n1 < Report-To: {\"endpoints\":[{\"url\":\"https:\\\/\\\/a.nel.cloudflare.com\\\/report\\\/v3?s=pziZDmvNdMEsKLtunT7TonrKihVexflsF%2B1WS0JQgDeFXX8egBRfHyP5fvTLx81L5QKs7mTSh85H41dV2%2BXOhOFW2OOQ5b%2BWIqoibj4goqWLSU5gmd9mx5rMKQ%3D%3D\"}],\"group\":\"cf-nel\",\"max_age\":604800}\n1 < NEL: {\"success_fraction\":0,\"report_to\":\"cf-nel\",\"max_age\":604800}\n1 < Vary: Accept-Encoding\n1 < Server: cloudflare\n1 < CF-RAY: 771c48c4edc9a041-SIN\n{\"page\":2,\"per_page\":6,\"total\":12,\"total_pages\":2,\"data\":[{\"id\":7,\"email\":\"michael.lawson@reqres.in\",\"first_name\":\"Michael\",\"last_name\":\"Lawson\",\"avatar\":\"https:\/\/reqres.in\/img\/faces\/7-image.jpg\"},{\"id\":8,\"email\":\"lindsay.ferguson@reqres.in\",\"first_name\":\"Lindsay\",\"last_name\":\"Ferguson\",\"avatar\":\"https:\/\/reqres.in\/img\/faces\/8-image.jpg\"},{\"id\":9,\"email\":\"tobias.funke@reqres.in\",\"first_name\":\"Tobias\",\"last_name\":\"Funke\",\"avatar\":\"https:\/\/reqres.in\/img\/faces\/9-image.jpg\"},{\"id\":10,\"email\":\"byron.fields@reqres.in\",\"first_name\":\"Byron\",\"last_name\":\"Fields\",\"avatar\":\"https:\/\/reqres.in\/img\/faces\/10-image.jpg\"},{\"id\":11,\"email\":\"george.edwards@reqres.in\",\"first_name\":\"George\",\"last_name\":\"Edwards\",\"avatar\":\"https:\/\/reqres.in\/img\/faces\/11-image.jpg\"},{\"id\":12,\"email\":\"rachel.howell@reqres.in\",\"first_name\":\"Rachel\",\"last_name\":\"Howell\",\"avatar\":\"https:\/\/reqres.in\/img\/faces\/12-image.jpg\"}],\"support\":{\"url\":\"https:\/\/reqres.in\/#support-heading\",\"text\":\"To keep ReqRes free, contributions towards server costs are appreciated!\"}}\n\n"},{"result":{"nanos":26500,"millis":0.0265,"status":"passed"},"step":{"line":32,"prefix":"Then","index":3,"text":"status 200"}},{"result":{"nanos":3632100,"millis":3.6321,"status":"passed"},"step":{"line":33,"prefix":"And","index":4,"text":"print responseHeaders"},"stepLog":"21:12:53.701 [print] {\n  \"Date\": [\n    \"Tue, 29 Nov 2022 15:12:54 GMT\"\n  ],\n  \"Content-Type\": [\n    \"application\/json; charset=utf-8\"\n  ],\n  \"Transfer-Encoding\": [\n    \"chunked\"\n  ],\n  \"Connection\": [\n    \"keep-alive\"\n  ],\n  \"X-Powered-By\": [\n    \"Express\"\n  ],\n  \"Access-Control-Allow-Origin\": [\n    \"*\"\n  ],\n  \"Etag\": [\n    \"W\/\\\"406-ut0vzoCuidvyMf8arZpMpJ6ZRDw\\\"\"\n  ],\n  \"Via\": [\n    \"1.1 vegur\"\n  ],\n  \"Cache-Control\": [\n    \"max-age=14400\"\n  ],\n  \"CF-Cache-Status\": [\n    \"HIT\"\n  ],\n  \"Age\": [\n    \"2391\"\n  ],\n  \"Report-To\": [\n    \"{\\\"endpoints\\\":[{\\\"url\\\":\\\"https:\\\\\/\\\\\/a.nel.cloudflare.com\\\\\/report\\\\\/v3?s=pziZDmvNdMEsKLtunT7TonrKihVexflsF%2B1WS0JQgDeFXX8egBRfHyP5fvTLx81L5QKs7mTSh85H41dV2%2BXOhOFW2OOQ5b%2BWIqoibj4goqWLSU5gmd9mx5rMKQ%3D%3D\\\"}],\\\"group\\\":\\\"cf-nel\\\",\\\"max_age\\\":604800}\"\n  ],\n  \"NEL\": [\n    \"{\\\"success_fraction\\\":0,\\\"report_to\\\":\\\"cf-nel\\\",\\\"max_age\\\":604800}\"\n  ],\n  \"Vary\": [\n    \"Accept-Encoding\"\n  ],\n  \"Server\": [\n    \"cloudflare\"\n  ],\n  \"CF-RAY\": [\n    \"771c48c4edc9a041-SIN\"\n  ],\n  \"Set-Cookie\": [\n  ]\n}\n \n"},{"result":{"nanos":2509100,"millis":2.5091,"status":"passed"},"step":{"line":34,"prefix":"And","index":5,"text":"print responseTime"},"stepLog":"21:12:53.703 [print] 206 \n"},{"result":{"nanos":2155000,"millis":2.155,"status":"passed"},"step":{"line":35,"prefix":"And","index":6,"text":"print responseStatus"},"stepLog":"21:12:53.706 [print] 200 \n"},{"result":{"nanos":2235000,"millis":2.235,"status":"passed"},"step":{"line":36,"prefix":"And","index":7,"text":"print responseCookies"},"stepLog":"21:12:53.708 [print] {\n}\n \n"}],"executorName":"main","line":28,"name":"Get API with background but with path and param separated","description":"","durationMillis":231.8721,"startTime":1669734773473,"failed":false,"refId":"[3:28]","endTime":1669734773709,"exampleIndex":-1},{"sectionIndex":3,"stepResults":[{"result":{"nanos":637100,"millis":0.6371,"status":"passed"},"step":{"background":true,"line":4,"prefix":"*","index":0,"text":"url 'https:\/\/reqres.in\/api'"}},{"result":{"nanos":548600,"millis":0.5486,"status":"passed"},"step":{"background":true,"line":5,"prefix":"*","index":1,"text":"header Accept = 'application\/json'"}},{"result":{"nanos":334500,"millis":0.3345,"status":"passed"},"step":{"line":40,"prefix":"Given","index":0,"text":"path '\/users?page=2'"}},{"result":{"nanos":240938500,"millis":240.9385,"status":"passed"},"step":{"line":41,"prefix":"When","index":1,"text":"method GET"},"stepLog":"21:12:53.726 request:\n1 > GET https:\/\/reqres.in\/api\/users%3Fpage=2\n1 > Accept: application\/json\n1 > Host: reqres.in\n1 > Connection: Keep-Alive\n1 > User-Agent: Apache-HttpClient\/4.5.13 (Java\/17.0.5)\n1 > Accept-Encoding: gzip,deflate\n\n\n21:12:53.957 response time in milliseconds: 229\n1 < 200\n1 < Date: Tue, 29 Nov 2022 15:12:54 GMT\n1 < Content-Type: application\/json; charset=utf-8\n1 < Transfer-Encoding: chunked\n1 < Connection: keep-alive\n1 < X-Powered-By: Express\n1 < Access-Control-Allow-Origin: *\n1 < Etag: W\/\"2c1-N6Rqerxquq2kgQhL51EiSg4x0R8\"\n1 < Via: 1.1 vegur\n1 < Cache-Control: max-age=14400\n1 < CF-Cache-Status: HIT\n1 < Age: 253\n1 < Report-To: {\"endpoints\":[{\"url\":\"https:\\\/\\\/a.nel.cloudflare.com\\\/report\\\/v3?s=Zga0%2FdZ7xLC%2BN0NRV6qLkwzv453bGgY0sJoyGAWeiBdo3ypPMUw19A6YW0a1cxXWYY2Z3nElYT3UqDlHpUfBVGK8Ga4Z9jtQecoLi8FNKkSjNYx9ssS9vDrVZA%3D%3D\"}],\"group\":\"cf-nel\",\"max_age\":604800}\n1 < NEL: {\"success_fraction\":0,\"report_to\":\"cf-nel\",\"max_age\":604800}\n1 < Vary: Accept-Encoding\n1 < Server: cloudflare\n1 < CF-RAY: 771c48c66f68895f-SIN\n{\"page\":1,\"per_page\":6,\"total\":12,\"total_pages\":2,\"data\":[{\"id\":1,\"name\":\"cerulean\",\"year\":2000,\"color\":\"#98B2D1\",\"pantone_value\":\"15-4020\"},{\"id\":2,\"name\":\"fuchsia rose\",\"year\":2001,\"color\":\"#C74375\",\"pantone_value\":\"17-2031\"},{\"id\":3,\"name\":\"true red\",\"year\":2002,\"color\":\"#BF1932\",\"pantone_value\":\"19-1664\"},{\"id\":4,\"name\":\"aqua sky\",\"year\":2003,\"color\":\"#7BC4C4\",\"pantone_value\":\"14-4811\"},{\"id\":5,\"name\":\"tigerlily\",\"year\":2004,\"color\":\"#E2583E\",\"pantone_value\":\"17-1456\"},{\"id\":6,\"name\":\"blue turquoise\",\"year\":2005,\"color\":\"#53B0AE\",\"pantone_value\":\"15-5217\"}],\"support\":{\"url\":\"https:\/\/reqres.in\/#support-heading\",\"text\":\"To keep ReqRes free, contributions towards server costs are appreciated!\"}}\n\n"},{"result":{"nanos":70000,"millis":0.07,"status":"passed"},"step":{"line":42,"prefix":"Then","index":2,"text":"status 200"}},{"result":{"nanos":7156900,"millis":7.1569,"status":"passed"},"step":{"line":43,"prefix":"And","index":3,"text":"print response.data[0].name"},"stepLog":"21:12:53.972 [print] cerulean \n"},{"result":{"nanos":12491400,"millis":12.4914,"status":"passed"},"step":{"line":44,"prefix":"And","index":4,"text":"print response.data[0].year"},"stepLog":"21:12:53.985 [print] 2000 \n"}],"executorName":"main","line":39,"name":"Get API with getting a specified attribute","description":"","durationMillis":262.177,"startTime":1669734773720,"failed":false,"refId":"[4:39]","endTime":1669734773986,"exampleIndex":-1},{"sectionIndex":4,"stepResults":[{"result":{"nanos":594200,"millis":0.5942,"status":"passed"},"step":{"background":true,"line":4,"prefix":"*","index":0,"text":"url 'https:\/\/reqres.in\/api'"}},{"result":{"nanos":588000,"millis":0.588,"status":"passed"},"step":{"background":true,"line":5,"prefix":"*","index":1,"text":"header Accept = 'application\/json'"}},{"result":{"nanos":1401200,"millis":1.4012,"status":"passed"},"step":{"line":47,"prefix":"Given","index":0,"text":"path '\/users\/2'"}},{"result":{"nanos":233409900,"millis":233.4099,"status":"passed"},"step":{"line":48,"prefix":"When","index":1,"text":"method  GET"},"stepLog":"21:12:54.032 request:\n1 > GET https:\/\/reqres.in\/api\/users\/2\n1 > Accept: application\/json\n1 > Host: reqres.in\n1 > Connection: Keep-Alive\n1 > User-Agent: Apache-HttpClient\/4.5.13 (Java\/17.0.5)\n1 > Accept-Encoding: gzip,deflate\n\n\n21:12:54.253 response time in milliseconds: 219\n1 < 200\n1 < Date: Tue, 29 Nov 2022 15:12:55 GMT\n1 < Content-Type: application\/json; charset=utf-8\n1 < Transfer-Encoding: chunked\n1 < Connection: keep-alive\n1 < X-Powered-By: Express\n1 < Access-Control-Allow-Origin: *\n1 < Etag: W\/\"118-pbdwwFo9SKNhD3Lx5iHJyngpq00\"\n1 < Via: 1.1 vegur\n1 < Cache-Control: max-age=14400\n1 < CF-Cache-Status: HIT\n1 < Age: 5085\n1 < Report-To: {\"endpoints\":[{\"url\":\"https:\\\/\\\/a.nel.cloudflare.com\\\/report\\\/v3?s=1jSJXfBGVvie2NO0wiTKs6J2Kx%2B%2Bu8HSczZZh1QjVkHiA1cTDHBNkrLoz%2FqfdUQkxqAHKRu9nm84QITCUbFt6QRxY9bcPKKFnQsYOjVXa6Y%2BAt5BZDJfvUt%2F8A%3D%3D\"}],\"group\":\"cf-nel\",\"max_age\":604800}\n1 < NEL: {\"success_fraction\":0,\"report_to\":\"cf-nel\",\"max_age\":604800}\n1 < Vary: Accept-Encoding\n1 < Server: cloudflare\n1 < CF-RAY: 771c48c85c67468b-SIN\n{\"data\":{\"id\":2,\"email\":\"janet.weaver@reqres.in\",\"first_name\":\"Janet\",\"last_name\":\"Weaver\",\"avatar\":\"https:\/\/reqres.in\/img\/faces\/2-image.jpg\"},\"support\":{\"url\":\"https:\/\/reqres.in\/#support-heading\",\"text\":\"To keep ReqRes free, contributions towards server costs are appreciated!\"}}\n\n"},{"result":{"nanos":61200,"millis":0.0612,"status":"passed"},"step":{"line":49,"prefix":"Then","index":2,"text":"status 200"}},{"result":{"nanos":3968700,"millis":3.9687,"status":"passed"},"step":{"line":50,"prefix":"And","index":3,"text":"print response.data"},"stepLog":"21:12:54.263 [print] {\n  \"id\": 2,\n  \"email\": \"janet.weaver@reqres.in\",\n  \"first_name\": \"Janet\",\n  \"last_name\": \"Weaver\",\n  \"avatar\": \"https:\/\/reqres.in\/img\/faces\/2-image.jpg\"\n}\n \n"}],"executorName":"main","line":46,"name":"Get API with single user","description":"","durationMillis":240.0232,"startTime":1669734774021,"failed":false,"refId":"[5:46]","endTime":1669734774264,"exampleIndex":-1}],"callDepth":0,"name":"Perform GET request","description":"","resultDate":"2022-11-29 09:12:54 PM","durationMillis":3456.2078,"passedCount":5}