{"failedCount":0,"prefixedPath":"src\/test\/java\/Sample\/GetUser.feature","packageQualifiedName":"src.test.java.Sample.GetUser","loopIndex":-1,"relativePath":"src\/test\/java\/Sample\/GetUser.feature","scenarioResults":[{"sectionIndex":2,"stepResults":[{"result":{"nanos":228845800,"millis":228.8458,"status":"passed"},"step":{"background":true,"line":4,"prefix":"*","index":0,"text":"url 'https:\/\/reqres.in\/api'"}},{"result":{"nanos":1446400,"millis":1.4464,"status":"passed"},"step":{"background":true,"line":5,"prefix":"*","index":1,"text":"header Accept = 'application\/json'"}},{"result":{"nanos":859100,"millis":0.8591,"status":"passed"},"step":{"line":25,"prefix":"Given","index":0,"text":"path '\/users'"}},{"result":{"nanos":23358500,"millis":23.3585,"status":"passed"},"step":{"line":26,"prefix":"And","index":1,"text":"param page = 2"}},{"result":{"nanos":1725446300,"millis":1725.4463,"status":"passed"},"step":{"line":27,"prefix":"When","index":2,"text":"method GET"},"stepLog":"20:24:13.855 request:\n1 > GET https:\/\/reqres.in\/api\/users?page=2\n1 > Accept: application\/json\n1 > Host: reqres.in\n1 > Connection: Keep-Alive\n1 > User-Agent: Apache-HttpClient\/4.5.13 (Java\/17.0.5)\n1 > Accept-Encoding: gzip,deflate\n\n\n20:24:14.671 response time in milliseconds: 802\n1 < 200\n1 < Date: Tue, 29 Nov 2022 14:24:15 GMT\n1 < Content-Type: application\/json; charset=utf-8\n1 < Transfer-Encoding: chunked\n1 < Connection: keep-alive\n1 < X-Powered-By: Express\n1 < Access-Control-Allow-Origin: *\n1 < Etag: W\/\"406-ut0vzoCuidvyMf8arZpMpJ6ZRDw\"\n1 < Via: 1.1 vegur\n1 < Cache-Control: max-age=14400\n1 < CF-Cache-Status: HIT\n1 < Age: 209\n1 < Report-To: {\"endpoints\":[{\"url\":\"https:\\\/\\\/a.nel.cloudflare.com\\\/report\\\/v3?s=qT8SrAjlDOFpqxyYCyElujGX7jZTurNPapInRjtr87PsjAooWxZE9%2FZZz2CkZPHcsBgNUfKbiX5ck39G3uv0otaG4Ei9Yt3AmvaaznwDh56i0EV4BqqUQ5sKvw%3D%3D\"}],\"group\":\"cf-nel\",\"max_age\":604800}\n1 < NEL: {\"success_fraction\":0,\"report_to\":\"cf-nel\",\"max_age\":604800}\n1 < Vary: Accept-Encoding\n1 < Server: cloudflare\n1 < CF-RAY: 771c018009888805-SIN\n{\"page\":2,\"per_page\":6,\"total\":12,\"total_pages\":2,\"data\":[{\"id\":7,\"email\":\"michael.lawson@reqres.in\",\"first_name\":\"Michael\",\"last_name\":\"Lawson\",\"avatar\":\"https:\/\/reqres.in\/img\/faces\/7-image.jpg\"},{\"id\":8,\"email\":\"lindsay.ferguson@reqres.in\",\"first_name\":\"Lindsay\",\"last_name\":\"Ferguson\",\"avatar\":\"https:\/\/reqres.in\/img\/faces\/8-image.jpg\"},{\"id\":9,\"email\":\"tobias.funke@reqres.in\",\"first_name\":\"Tobias\",\"last_name\":\"Funke\",\"avatar\":\"https:\/\/reqres.in\/img\/faces\/9-image.jpg\"},{\"id\":10,\"email\":\"byron.fields@reqres.in\",\"first_name\":\"Byron\",\"last_name\":\"Fields\",\"avatar\":\"https:\/\/reqres.in\/img\/faces\/10-image.jpg\"},{\"id\":11,\"email\":\"george.edwards@reqres.in\",\"first_name\":\"George\",\"last_name\":\"Edwards\",\"avatar\":\"https:\/\/reqres.in\/img\/faces\/11-image.jpg\"},{\"id\":12,\"email\":\"rachel.howell@reqres.in\",\"first_name\":\"Rachel\",\"last_name\":\"Howell\",\"avatar\":\"https:\/\/reqres.in\/img\/faces\/12-image.jpg\"}],\"support\":{\"url\":\"https:\/\/reqres.in\/#support-heading\",\"text\":\"To keep ReqRes free, contributions towards server costs are appreciated!\"}}\n\n"},{"result":{"nanos":95300,"millis":0.0953,"status":"passed"},"step":{"line":28,"prefix":"Then","index":3,"text":"status 200"}},{"result":{"nanos":240440000,"millis":240.44,"status":"passed"},"step":{"line":29,"prefix":"And","index":4,"text":"print responseHeaders"},"stepLog":"20:24:15.053 [print] {\n  \"Date\": [\n    \"Tue, 29 Nov 2022 14:24:15 GMT\"\n  ],\n  \"Content-Type\": [\n    \"application\/json; charset=utf-8\"\n  ],\n  \"Transfer-Encoding\": [\n    \"chunked\"\n  ],\n  \"Connection\": [\n    \"keep-alive\"\n  ],\n  \"X-Powered-By\": [\n    \"Express\"\n  ],\n  \"Access-Control-Allow-Origin\": [\n    \"*\"\n  ],\n  \"Etag\": [\n    \"W\/\\\"406-ut0vzoCuidvyMf8arZpMpJ6ZRDw\\\"\"\n  ],\n  \"Via\": [\n    \"1.1 vegur\"\n  ],\n  \"Cache-Control\": [\n    \"max-age=14400\"\n  ],\n  \"CF-Cache-Status\": [\n    \"HIT\"\n  ],\n  \"Age\": [\n    \"209\"\n  ],\n  \"Report-To\": [\n    \"{\\\"endpoints\\\":[{\\\"url\\\":\\\"https:\\\\\/\\\\\/a.nel.cloudflare.com\\\\\/report\\\\\/v3?s=qT8SrAjlDOFpqxyYCyElujGX7jZTurNPapInRjtr87PsjAooWxZE9%2FZZz2CkZPHcsBgNUfKbiX5ck39G3uv0otaG4Ei9Yt3AmvaaznwDh56i0EV4BqqUQ5sKvw%3D%3D\\\"}],\\\"group\\\":\\\"cf-nel\\\",\\\"max_age\\\":604800}\"\n  ],\n  \"NEL\": [\n    \"{\\\"success_fraction\\\":0,\\\"report_to\\\":\\\"cf-nel\\\",\\\"max_age\\\":604800}\"\n  ],\n  \"Vary\": [\n    \"Accept-Encoding\"\n  ],\n  \"Server\": [\n    \"cloudflare\"\n  ],\n  \"CF-RAY\": [\n    \"771c018009888805-SIN\"\n  ],\n  \"Set-Cookie\": [\n  ]\n}\n \n"},{"result":{"nanos":3244500,"millis":3.2445,"status":"passed"},"step":{"line":30,"prefix":"And","index":5,"text":"print responseTime"},"stepLog":"20:24:15.062 [print] 802 \n"},{"result":{"nanos":2781200,"millis":2.7812,"status":"passed"},"step":{"line":31,"prefix":"And","index":6,"text":"print responseStatus"},"stepLog":"20:24:15.065 [print] 200 \n"},{"result":{"nanos":1978100,"millis":1.9781,"status":"passed"},"step":{"line":32,"prefix":"And","index":7,"text":"print responseCookies"},"stepLog":"20:24:15.068 [print] {\n}\n \n"}],"executorName":"main","line":24,"name":"Get API with background but with path and param separated","description":"","durationMillis":2228.4952,"startTime":1669731852788,"failed":false,"refId":"[3:24]","endTime":1669731855068,"exampleIndex":-1}],"callDepth":0,"name":"Perform GET request","description":"","resultDate":"2022-11-29 08:24:15 PM","durationMillis":2228.4952,"passedCount":1}