{"failedCount":0,"prefixedPath":"classpath:Sample\/GetUser.feature","packageQualifiedName":"Sample.GetUser","loopIndex":-1,"relativePath":"Sample\/GetUser.feature","scenarioResults":[{"sectionIndex":0,"stepResults":[{"result":{"nanos":248280800,"millis":248.2808,"status":"passed"},"step":{"background":true,"line":4,"prefix":"*","index":0,"text":"url 'https:\/\/reqres.in\/api'"}},{"result":{"nanos":2940100,"millis":2.9401,"status":"passed"},"step":{"background":true,"line":5,"prefix":"*","index":1,"text":"header Accept = 'application\/json'"}},{"result":{"nanos":1965800,"millis":1.9658,"status":"passed"},"step":{"line":9,"prefix":"Given","index":0,"text":"url 'https:\/\/reqres.in\/api\/users?page=2'"}},{"result":{"nanos":1903442000,"millis":1903.442,"status":"passed"},"step":{"line":10,"prefix":"When","index":1,"text":"method Get"},"stepLog":"16:20:09.587 request:\n1 > GET https:\/\/reqres.in\/api\/users?page=2\n1 > Accept: application\/json\n1 > Host: reqres.in\n1 > Connection: Keep-Alive\n1 > User-Agent: Apache-HttpClient\/4.5.13 (Java\/17.0.5)\n1 > Accept-Encoding: gzip,deflate\n\n\n16:20:10.505 response time in milliseconds: 911\n1 < 200\n1 < Date: Wed, 30 Nov 2022 10:20:11 GMT\n1 < Content-Type: application\/json; charset=utf-8\n1 < Transfer-Encoding: chunked\n1 < Connection: keep-alive\n1 < X-Powered-By: Express\n1 < Access-Control-Allow-Origin: *\n1 < Etag: W\/\"406-ut0vzoCuidvyMf8arZpMpJ6ZRDw\"\n1 < Via: 1.1 vegur\n1 < Cache-Control: max-age=14400\n1 < CF-Cache-Status: HIT\n1 < Age: 4541\n1 < Report-To: {\"endpoints\":[{\"url\":\"https:\\\/\\\/a.nel.cloudflare.com\\\/report\\\/v3?s=AgH5jlfch7qbU%2BYOmf5GV0U0HSIzQzPX%2F2zxvcN2YJPl6N9EzVcWm96T2%2B0mUR5UNFi%2BzkeKH3w3Cb6o06kX8ExoMNOunOM5HQlp%2F1Nu4LutwerectgqBAUo6Q%3D%3D\"}],\"group\":\"cf-nel\",\"max_age\":604800}\n1 < NEL: {\"success_fraction\":0,\"report_to\":\"cf-nel\",\"max_age\":604800}\n1 < Vary: Accept-Encoding\n1 < Server: cloudflare\n1 < CF-RAY: 7722d95d2d14ab5c-SIN\n{\"page\":2,\"per_page\":6,\"total\":12,\"total_pages\":2,\"data\":[{\"id\":7,\"email\":\"michael.lawson@reqres.in\",\"first_name\":\"Michael\",\"last_name\":\"Lawson\",\"avatar\":\"https:\/\/reqres.in\/img\/faces\/7-image.jpg\"},{\"id\":8,\"email\":\"lindsay.ferguson@reqres.in\",\"first_name\":\"Lindsay\",\"last_name\":\"Ferguson\",\"avatar\":\"https:\/\/reqres.in\/img\/faces\/8-image.jpg\"},{\"id\":9,\"email\":\"tobias.funke@reqres.in\",\"first_name\":\"Tobias\",\"last_name\":\"Funke\",\"avatar\":\"https:\/\/reqres.in\/img\/faces\/9-image.jpg\"},{\"id\":10,\"email\":\"byron.fields@reqres.in\",\"first_name\":\"Byron\",\"last_name\":\"Fields\",\"avatar\":\"https:\/\/reqres.in\/img\/faces\/10-image.jpg\"},{\"id\":11,\"email\":\"george.edwards@reqres.in\",\"first_name\":\"George\",\"last_name\":\"Edwards\",\"avatar\":\"https:\/\/reqres.in\/img\/faces\/11-image.jpg\"},{\"id\":12,\"email\":\"rachel.howell@reqres.in\",\"first_name\":\"Rachel\",\"last_name\":\"Howell\",\"avatar\":\"https:\/\/reqres.in\/img\/faces\/12-image.jpg\"}],\"support\":{\"url\":\"https:\/\/reqres.in\/#support-heading\",\"text\":\"To keep ReqRes free, contributions towards server costs are appreciated!\"}}\n\n"},{"result":{"nanos":46200,"millis":0.0462,"status":"passed"},"step":{"line":11,"prefix":"Then","index":2,"text":"status 200"}},{"result":{"nanos":283149900,"millis":283.1499,"status":"passed"},"step":{"line":12,"prefix":"And","index":3,"text":"print response.data"},"stepLog":"16:20:10.931 [print] [\n  {\n    \"id\": 7,\n    \"email\": \"michael.lawson@reqres.in\",\n    \"first_name\": \"Michael\",\n    \"last_name\": \"Lawson\",\n    \"avatar\": \"https:\/\/reqres.in\/img\/faces\/7-image.jpg\"\n  },\n  {\n    \"id\": 8,\n    \"email\": \"lindsay.ferguson@reqres.in\",\n    \"first_name\": \"Lindsay\",\n    \"last_name\": \"Ferguson\",\n    \"avatar\": \"https:\/\/reqres.in\/img\/faces\/8-image.jpg\"\n  },\n  {\n    \"id\": 9,\n    \"email\": \"tobias.funke@reqres.in\",\n    \"first_name\": \"Tobias\",\n    \"last_name\": \"Funke\",\n    \"avatar\": \"https:\/\/reqres.in\/img\/faces\/9-image.jpg\"\n  },\n  {\n    \"id\": 10,\n    \"email\": \"byron.fields@reqres.in\",\n    \"first_name\": \"Byron\",\n    \"last_name\": \"Fields\",\n    \"avatar\": \"https:\/\/reqres.in\/img\/faces\/10-image.jpg\"\n  },\n  {\n    \"id\": 11,\n    \"email\": \"george.edwards@reqres.in\",\n    \"first_name\": \"George\",\n    \"last_name\": \"Edwards\",\n    \"avatar\": \"https:\/\/reqres.in\/img\/faces\/11-image.jpg\"\n  },\n  {\n    \"id\": 12,\n    \"email\": \"rachel.howell@reqres.in\",\n    \"first_name\": \"Rachel\",\n    \"last_name\": \"Howell\",\n    \"avatar\": \"https:\/\/reqres.in\/img\/faces\/12-image.jpg\"\n  }\n]\n \n"},{"result":{"nanos":29932200,"millis":29.9322,"status":"passed"},"step":{"line":13,"prefix":"And","index":4,"text":"print response.data[4]"},"stepLog":"16:20:10.969 [print] {\n  \"id\": 11,\n  \"email\": \"george.edwards@reqres.in\",\n  \"first_name\": \"George\",\n  \"last_name\": \"Edwards\",\n  \"avatar\": \"https:\/\/reqres.in\/img\/faces\/11-image.jpg\"\n}\n \n"},{"result":{"nanos":109973900,"millis":109.9739,"status":"passed"},"step":{"line":14,"prefix":"And","index":5,"text":"match response.data[0].first_name != null"}},{"result":{"nanos":10560500,"millis":10.5605,"status":"passed"},"step":{"line":15,"prefix":"And","index":6,"text":"match $.data[3].id == 10"}},{"result":{"nanos":3140900,"millis":3.1409,"status":"passed"},"step":{"line":16,"prefix":"And","index":7,"text":"match response.data[4].last_name == 'Edwards'"}},{"result":{"nanos":3299300,"millis":3.2993,"status":"passed"},"step":{"line":17,"prefix":"And","index":8,"text":"match response.page == 2"}},{"result":{"nanos":4259000,"millis":4.259,"status":"passed"},"step":{"line":18,"prefix":"And","index":9,"text":"match response.per_page == 6"}},{"result":{"nanos":22604300,"millis":22.6043,"status":"passed"},"step":{"line":19,"prefix":"And","index":10,"text":"assert response.data.length == 6"}}],"executorName":"main","line":8,"name":"Perform get request for List User","description":"","durationMillis":2623.5949,"startTime":1669803608451,"failed":false,"refId":"[1:8]","endTime":1669803611124,"exampleIndex":-1},{"sectionIndex":1,"stepResults":[{"result":{"nanos":3225700,"millis":3.2257,"status":"passed"},"step":{"background":true,"line":4,"prefix":"*","index":0,"text":"url 'https:\/\/reqres.in\/api'"}},{"result":{"nanos":1304300,"millis":1.3043,"status":"passed"},"step":{"background":true,"line":5,"prefix":"*","index":1,"text":"header Accept = 'application\/json'"}},{"result":{"nanos":1210100,"millis":1.2101,"status":"passed"},"step":{"line":23,"prefix":"Given","index":0,"text":"path '\/users?page=2'"}},{"result":{"nanos":684151400,"millis":684.1514,"status":"passed"},"step":{"line":24,"prefix":"When","index":1,"text":"method GET"},"stepLog":"16:20:11.417 request:\n1 > GET https:\/\/reqres.in\/api\/users%3Fpage=2\n1 > Accept: application\/json\n1 > Host: reqres.in\n1 > Connection: Keep-Alive\n1 > User-Agent: Apache-HttpClient\/4.5.13 (Java\/17.0.5)\n1 > Accept-Encoding: gzip,deflate\n\n\n16:20:12.089 response time in milliseconds: 671\n1 < 200\n1 < Date: Wed, 30 Nov 2022 10:20:13 GMT\n1 < Content-Type: application\/json; charset=utf-8\n1 < Transfer-Encoding: chunked\n1 < Connection: keep-alive\n1 < X-Powered-By: Express\n1 < Access-Control-Allow-Origin: *\n1 < Etag: W\/\"2c1-N6Rqerxquq2kgQhL51EiSg4x0R8\"\n1 < Via: 1.1 vegur\n1 < Cache-Control: max-age=14400\n1 < CF-Cache-Status: REVALIDATED\n1 < Report-To: {\"endpoints\":[{\"url\":\"https:\\\/\\\/a.nel.cloudflare.com\\\/report\\\/v3?s=2TVfEcMCVP6OoOMTCJMRdscEmc2AFbOG%2BF40aVYUwMR37jxC%2B6lJATb2fb0F1YX4zn%2FSrm0PUt3wjE2yxN%2FlpEbemoDNUVqXrZ8OqgyuLrIUG41FAm9ndzj20Q%3D%3D\"}],\"group\":\"cf-nel\",\"max_age\":604800}\n1 < NEL: {\"success_fraction\":0,\"report_to\":\"cf-nel\",\"max_age\":604800}\n1 < Vary: Accept-Encoding\n1 < Server: cloudflare\n1 < CF-RAY: 7722d9644f3ea081-SIN\n{\"page\":1,\"per_page\":6,\"total\":12,\"total_pages\":2,\"data\":[{\"id\":1,\"name\":\"cerulean\",\"year\":2000,\"color\":\"#98B2D1\",\"pantone_value\":\"15-4020\"},{\"id\":2,\"name\":\"fuchsia rose\",\"year\":2001,\"color\":\"#C74375\",\"pantone_value\":\"17-2031\"},{\"id\":3,\"name\":\"true red\",\"year\":2002,\"color\":\"#BF1932\",\"pantone_value\":\"19-1664\"},{\"id\":4,\"name\":\"aqua sky\",\"year\":2003,\"color\":\"#7BC4C4\",\"pantone_value\":\"14-4811\"},{\"id\":5,\"name\":\"tigerlily\",\"year\":2004,\"color\":\"#E2583E\",\"pantone_value\":\"17-1456\"},{\"id\":6,\"name\":\"blue turquoise\",\"year\":2005,\"color\":\"#53B0AE\",\"pantone_value\":\"15-5217\"}],\"support\":{\"url\":\"https:\/\/reqres.in\/#support-heading\",\"text\":\"To keep ReqRes free, contributions towards server costs are appreciated!\"}}\n\n"},{"result":{"nanos":26600,"millis":0.0266,"status":"passed"},"step":{"line":25,"prefix":"Then","index":2,"text":"status 200"}},{"result":{"nanos":4295600,"millis":4.2956,"status":"passed"},"step":{"line":26,"prefix":"*","index":3,"text":"print response.data[3]"},"stepLog":"16:20:12.101 [print] {\n  \"id\": 4,\n  \"name\": \"aqua sky\",\n  \"year\": 2003,\n  \"color\": \"#7BC4C4\",\n  \"pantone_value\": \"14-4811\"\n}\n \n"}],"executorName":"main","line":22,"name":"Get API with background","description":"","durationMillis":694.2137,"startTime":1669803611406,"failed":false,"refId":"[2:22]","endTime":1669803612101,"exampleIndex":-1},{"sectionIndex":2,"stepResults":[{"result":{"nanos":637600,"millis":0.6376,"status":"passed"},"step":{"background":true,"line":4,"prefix":"*","index":0,"text":"url 'https:\/\/reqres.in\/api'"}},{"result":{"nanos":874800,"millis":0.8748,"status":"passed"},"step":{"background":true,"line":5,"prefix":"*","index":1,"text":"header Accept = 'application\/json'"}},{"result":{"nanos":1430800,"millis":1.4308,"status":"passed"},"step":{"line":29,"prefix":"Given","index":0,"text":"path '\/users'"}},{"result":{"nanos":1410400,"millis":1.4104,"status":"passed"},"step":{"line":30,"prefix":"And","index":1,"text":"param page = 2"}},{"result":{"nanos":203975500,"millis":203.9755,"status":"passed"},"step":{"line":31,"prefix":"When","index":2,"text":"method GET"},"stepLog":"16:20:12.145 request:\n1 > GET https:\/\/reqres.in\/api\/users?page=2\n1 > Accept: application\/json\n1 > Host: reqres.in\n1 > Connection: Keep-Alive\n1 > User-Agent: Apache-HttpClient\/4.5.13 (Java\/17.0.5)\n1 > Accept-Encoding: gzip,deflate\n\n\n16:20:12.341 response time in milliseconds: 195\n1 < 200\n1 < Date: Wed, 30 Nov 2022 10:20:13 GMT\n1 < Content-Type: application\/json; charset=utf-8\n1 < Transfer-Encoding: chunked\n1 < Connection: keep-alive\n1 < X-Powered-By: Express\n1 < Access-Control-Allow-Origin: *\n1 < Etag: W\/\"406-ut0vzoCuidvyMf8arZpMpJ6ZRDw\"\n1 < Via: 1.1 vegur\n1 < Cache-Control: max-age=14400\n1 < CF-Cache-Status: HIT\n1 < Age: 4543\n1 < Report-To: {\"endpoints\":[{\"url\":\"https:\\\/\\\/a.nel.cloudflare.com\\\/report\\\/v3?s=AaSox8pFu7W6AojYykF0QouXvECk1sMNKM14CtjBIaVCFqSLZ3haboGMbPTYOX319ZP1%2FMuT2PmaU5zmajGYl2%2FqCaDtnRJ0VLz%2Fm%2B3Wn8nwNm4EayFJ8uayOg%3D%3D\"}],\"group\":\"cf-nel\",\"max_age\":604800}\n1 < NEL: {\"success_fraction\":0,\"report_to\":\"cf-nel\",\"max_age\":604800}\n1 < Vary: Accept-Encoding\n1 < Server: cloudflare\n1 < CF-RAY: 7722d968dc9701b4-SIN\n{\"page\":2,\"per_page\":6,\"total\":12,\"total_pages\":2,\"data\":[{\"id\":7,\"email\":\"michael.lawson@reqres.in\",\"first_name\":\"Michael\",\"last_name\":\"Lawson\",\"avatar\":\"https:\/\/reqres.in\/img\/faces\/7-image.jpg\"},{\"id\":8,\"email\":\"lindsay.ferguson@reqres.in\",\"first_name\":\"Lindsay\",\"last_name\":\"Ferguson\",\"avatar\":\"https:\/\/reqres.in\/img\/faces\/8-image.jpg\"},{\"id\":9,\"email\":\"tobias.funke@reqres.in\",\"first_name\":\"Tobias\",\"last_name\":\"Funke\",\"avatar\":\"https:\/\/reqres.in\/img\/faces\/9-image.jpg\"},{\"id\":10,\"email\":\"byron.fields@reqres.in\",\"first_name\":\"Byron\",\"last_name\":\"Fields\",\"avatar\":\"https:\/\/reqres.in\/img\/faces\/10-image.jpg\"},{\"id\":11,\"email\":\"george.edwards@reqres.in\",\"first_name\":\"George\",\"last_name\":\"Edwards\",\"avatar\":\"https:\/\/reqres.in\/img\/faces\/11-image.jpg\"},{\"id\":12,\"email\":\"rachel.howell@reqres.in\",\"first_name\":\"Rachel\",\"last_name\":\"Howell\",\"avatar\":\"https:\/\/reqres.in\/img\/faces\/12-image.jpg\"}],\"support\":{\"url\":\"https:\/\/reqres.in\/#support-heading\",\"text\":\"To keep ReqRes free, contributions towards server costs are appreciated!\"}}\n\n"},{"result":{"nanos":23900,"millis":0.0239,"status":"passed"},"step":{"line":32,"prefix":"Then","index":3,"text":"status 200"}},{"result":{"nanos":3414700,"millis":3.4147,"status":"passed"},"step":{"line":33,"prefix":"And","index":4,"text":"print responseHeaders"},"stepLog":"16:20:12.347 [print] {\n  \"Date\": [\n    \"Wed, 30 Nov 2022 10:20:13 GMT\"\n  ],\n  \"Content-Type\": [\n    \"application\/json; charset=utf-8\"\n  ],\n  \"Transfer-Encoding\": [\n    \"chunked\"\n  ],\n  \"Connection\": [\n    \"keep-alive\"\n  ],\n  \"X-Powered-By\": [\n    \"Express\"\n  ],\n  \"Access-Control-Allow-Origin\": [\n    \"*\"\n  ],\n  \"Etag\": [\n    \"W\/\\\"406-ut0vzoCuidvyMf8arZpMpJ6ZRDw\\\"\"\n  ],\n  \"Via\": [\n    \"1.1 vegur\"\n  ],\n  \"Cache-Control\": [\n    \"max-age=14400\"\n  ],\n  \"CF-Cache-Status\": [\n    \"HIT\"\n  ],\n  \"Age\": [\n    \"4543\"\n  ],\n  \"Report-To\": [\n    \"{\\\"endpoints\\\":[{\\\"url\\\":\\\"https:\\\\\/\\\\\/a.nel.cloudflare.com\\\\\/report\\\\\/v3?s=AaSox8pFu7W6AojYykF0QouXvECk1sMNKM14CtjBIaVCFqSLZ3haboGMbPTYOX319ZP1%2FMuT2PmaU5zmajGYl2%2FqCaDtnRJ0VLz%2Fm%2B3Wn8nwNm4EayFJ8uayOg%3D%3D\\\"}],\\\"group\\\":\\\"cf-nel\\\",\\\"max_age\\\":604800}\"\n  ],\n  \"NEL\": [\n    \"{\\\"success_fraction\\\":0,\\\"report_to\\\":\\\"cf-nel\\\",\\\"max_age\\\":604800}\"\n  ],\n  \"Vary\": [\n    \"Accept-Encoding\"\n  ],\n  \"Server\": [\n    \"cloudflare\"\n  ],\n  \"CF-RAY\": [\n    \"7722d968dc9701b4-SIN\"\n  ],\n  \"Set-Cookie\": [\n  ]\n}\n \n"},{"result":{"nanos":3484900,"millis":3.4849,"status":"passed"},"step":{"line":34,"prefix":"And","index":5,"text":"print responseTime"},"stepLog":"16:20:12.351 [print] 195 \n"},{"result":{"nanos":2758800,"millis":2.7588,"status":"passed"},"step":{"line":35,"prefix":"And","index":6,"text":"print responseStatus"},"stepLog":"16:20:12.354 [print] 200 \n"},{"result":{"nanos":3505800,"millis":3.5058,"status":"passed"},"step":{"line":36,"prefix":"And","index":7,"text":"print responseCookies"},"stepLog":"16:20:12.358 [print] {\n}\n \n"}],"executorName":"main","line":28,"name":"Get API with background but with path and param separated","description":"","durationMillis":221.5172,"startTime":1669803612135,"failed":false,"refId":"[3:28]","endTime":1669803612358,"exampleIndex":-1},{"sectionIndex":3,"stepResults":[{"result":{"nanos":1080800,"millis":1.0808,"status":"passed"},"step":{"background":true,"line":4,"prefix":"*","index":0,"text":"url 'https:\/\/reqres.in\/api'"}},{"result":{"nanos":1048600,"millis":1.0486,"status":"passed"},"step":{"background":true,"line":5,"prefix":"*","index":1,"text":"header Accept = 'application\/json'"}},{"result":{"nanos":287500,"millis":0.2875,"status":"passed"},"step":{"line":40,"prefix":"Given","index":0,"text":"path '\/users?page=2'"}},{"result":{"nanos":283516500,"millis":283.5165,"status":"passed"},"step":{"line":41,"prefix":"When","index":1,"text":"method GET"},"stepLog":"16:20:12.405 request:\n1 > GET https:\/\/reqres.in\/api\/users%3Fpage=2\n1 > Accept: application\/json\n1 > Host: reqres.in\n1 > Connection: Keep-Alive\n1 > User-Agent: Apache-HttpClient\/4.5.13 (Java\/17.0.5)\n1 > Accept-Encoding: gzip,deflate\n\n\n16:20:12.681 response time in milliseconds: 275\n1 < 200\n1 < Date: Wed, 30 Nov 2022 10:20:13 GMT\n1 < Content-Type: application\/json; charset=utf-8\n1 < Transfer-Encoding: chunked\n1 < Connection: keep-alive\n1 < X-Powered-By: Express\n1 < Access-Control-Allow-Origin: *\n1 < Etag: W\/\"2c1-N6Rqerxquq2kgQhL51EiSg4x0R8\"\n1 < Via: 1.1 vegur\n1 < Cache-Control: max-age=14400\n1 < CF-Cache-Status: HIT\n1 < Age: 0\n1 < Report-To: {\"endpoints\":[{\"url\":\"https:\\\/\\\/a.nel.cloudflare.com\\\/report\\\/v3?s=MXG%2BO%2BSiZVtyrNjG2jruN0OHOcKjPxycQAtMf2EV9SFR%2BS%2FK5XEsy2vwUD4iN%2F1GMm1qzDT9oqW6UJZ3pUT1R%2FMq3uNheFuQs68Jv2GfA8Abcqbu%2BCngN24HWA%3D%3D\"}],\"group\":\"cf-nel\",\"max_age\":604800}\n1 < NEL: {\"success_fraction\":0,\"report_to\":\"cf-nel\",\"max_age\":604800}\n1 < Vary: Accept-Encoding\n1 < Server: cloudflare\n1 < CF-RAY: 7722d96add159fbf-SIN\n{\"page\":1,\"per_page\":6,\"total\":12,\"total_pages\":2,\"data\":[{\"id\":1,\"name\":\"cerulean\",\"year\":2000,\"color\":\"#98B2D1\",\"pantone_value\":\"15-4020\"},{\"id\":2,\"name\":\"fuchsia rose\",\"year\":2001,\"color\":\"#C74375\",\"pantone_value\":\"17-2031\"},{\"id\":3,\"name\":\"true red\",\"year\":2002,\"color\":\"#BF1932\",\"pantone_value\":\"19-1664\"},{\"id\":4,\"name\":\"aqua sky\",\"year\":2003,\"color\":\"#7BC4C4\",\"pantone_value\":\"14-4811\"},{\"id\":5,\"name\":\"tigerlily\",\"year\":2004,\"color\":\"#E2583E\",\"pantone_value\":\"17-1456\"},{\"id\":6,\"name\":\"blue turquoise\",\"year\":2005,\"color\":\"#53B0AE\",\"pantone_value\":\"15-5217\"}],\"support\":{\"url\":\"https:\/\/reqres.in\/#support-heading\",\"text\":\"To keep ReqRes free, contributions towards server costs are appreciated!\"}}\n\n"},{"result":{"nanos":46900,"millis":0.0469,"status":"passed"},"step":{"line":42,"prefix":"Then","index":2,"text":"status 200"}},{"result":{"nanos":9383200,"millis":9.3832,"status":"passed"},"step":{"line":43,"prefix":"And","index":3,"text":"print response.data[0].name"},"stepLog":"16:20:12.689 [print] cerulean \n"},{"result":{"nanos":4619700,"millis":4.6197,"status":"passed"},"step":{"line":44,"prefix":"And","index":4,"text":"print response.data[0].year"},"stepLog":"16:20:12.699 [print] 2000 \n"}],"executorName":"main","line":39,"name":"Get API with getting a specified attribute","description":"","durationMillis":299.9832,"startTime":1669803612399,"failed":false,"refId":"[4:39]","endTime":1669803612699,"exampleIndex":-1},{"sectionIndex":4,"stepResults":[{"result":{"nanos":922000,"millis":0.922,"status":"passed"},"step":{"background":true,"line":4,"prefix":"*","index":0,"text":"url 'https:\/\/reqres.in\/api'"}},{"result":{"nanos":13609900,"millis":13.6099,"status":"passed"},"step":{"background":true,"line":5,"prefix":"*","index":1,"text":"header Accept = 'application\/json'"}},{"result":{"nanos":1702000,"millis":1.702,"status":"passed"},"step":{"line":47,"prefix":"Given","index":0,"text":"path '\/users\/2'"}},{"result":{"nanos":313406400,"millis":313.4064,"status":"passed"},"step":{"line":48,"prefix":"When","index":1,"text":"method  GET"},"stepLog":"16:20:12.787 request:\n1 > GET https:\/\/reqres.in\/api\/users\/2\n1 > Accept: application\/json\n1 > Host: reqres.in\n1 > Connection: Keep-Alive\n1 > User-Agent: Apache-HttpClient\/4.5.13 (Java\/17.0.5)\n1 > Accept-Encoding: gzip,deflate\n\n\n16:20:13.085 response time in milliseconds: 297\n1 < 200\n1 < Date: Wed, 30 Nov 2022 10:20:14 GMT\n1 < Content-Type: application\/json; charset=utf-8\n1 < Transfer-Encoding: chunked\n1 < Connection: keep-alive\n1 < X-Powered-By: Express\n1 < Access-Control-Allow-Origin: *\n1 < Etag: W\/\"118-pbdwwFo9SKNhD3Lx5iHJyngpq00\"\n1 < Via: 1.1 vegur\n1 < Cache-Control: max-age=14400\n1 < CF-Cache-Status: HIT\n1 < Age: 2234\n1 < Report-To: {\"endpoints\":[{\"url\":\"https:\\\/\\\/a.nel.cloudflare.com\\\/report\\\/v3?s=YTgeZigo57VmBU%2BPmwFofWCGfRwqRFSK7LLSETfAOOgg2ZRFY6z46i3z6v1p7CD%2By%2Br57YWqMMiF9hvjg%2F4YsEC1gLkR%2FFBILAIAbaKG6lEzAjArauStLTbAFQ%3D%3D\"}],\"group\":\"cf-nel\",\"max_age\":604800}\n1 < NEL: {\"success_fraction\":0,\"report_to\":\"cf-nel\",\"max_age\":604800}\n1 < Vary: Accept-Encoding\n1 < Server: cloudflare\n1 < CF-RAY: 7722d96d6b644cad-SIN\n{\"data\":{\"id\":2,\"email\":\"janet.weaver@reqres.in\",\"first_name\":\"Janet\",\"last_name\":\"Weaver\",\"avatar\":\"https:\/\/reqres.in\/img\/faces\/2-image.jpg\"},\"support\":{\"url\":\"https:\/\/reqres.in\/#support-heading\",\"text\":\"To keep ReqRes free, contributions towards server costs are appreciated!\"}}\n\n"},{"result":{"nanos":20500,"millis":0.0205,"status":"passed"},"step":{"line":49,"prefix":"Then","index":2,"text":"status 200"}},{"result":{"nanos":2171400,"millis":2.1714,"status":"passed"},"step":{"line":50,"prefix":"And","index":3,"text":"print response.data"},"stepLog":"16:20:13.095 [print] {\n  \"id\": 2,\n  \"email\": \"janet.weaver@reqres.in\",\n  \"first_name\": \"Janet\",\n  \"last_name\": \"Weaver\",\n  \"avatar\": \"https:\/\/reqres.in\/img\/faces\/2-image.jpg\"\n}\n \n"}],"executorName":"main","line":46,"name":"Get API with single user","description":"","durationMillis":331.8322,"startTime":1669803612762,"failed":false,"refId":"[5:46]","endTime":1669803613095,"exampleIndex":-1}],"callDepth":0,"name":"Perform GET request","description":"","resultDate":"2022-11-30 04:20:13 PM","durationMillis":4171.1412,"passedCount":5}