{"failedCount":1,"prefixedPath":"src\/test\/java\/Sample\/GetUser.feature","packageQualifiedName":"src.test.java.Sample.GetUser","loopIndex":-1,"relativePath":"src\/test\/java\/Sample\/GetUser.feature","scenarioResults":[{"sectionIndex":0,"stepResults":[{"result":{"nanos":245724200,"millis":245.7242,"status":"passed"},"step":{"background":true,"line":4,"prefix":"*","index":0,"text":"url 'https:\/\/reqres.in\/api'"}},{"result":{"nanos":1888000,"millis":1.888,"status":"passed"},"step":{"background":true,"line":5,"prefix":"*","index":1,"text":"header Accept = 'application\/json'"}},{"result":{"nanos":1300300,"millis":1.3003,"status":"passed"},"step":{"line":9,"prefix":"Given","index":0,"text":"url 'https:\/\/reqres.in\/api\/users?page=2'"}},{"result":{"nanos":1693698500,"millis":1693.6985,"status":"passed"},"step":{"line":10,"prefix":"When","index":1,"text":"method Get"},"stepLog":"21:08:37.138 request:\n1 > GET https:\/\/reqres.in\/api\/users?page=2\n1 > Accept: application\/json\n1 > Host: reqres.in\n1 > Connection: Keep-Alive\n1 > User-Agent: Apache-HttpClient\/4.5.13 (Java\/17.0.5)\n1 > Accept-Encoding: gzip,deflate\n\n\n21:08:37.888 response time in milliseconds: 741\n1 < 200\n1 < Date: Tue, 29 Nov 2022 15:08:38 GMT\n1 < Content-Type: application\/json; charset=utf-8\n1 < Transfer-Encoding: chunked\n1 < Connection: keep-alive\n1 < X-Powered-By: Express\n1 < Access-Control-Allow-Origin: *\n1 < Etag: W\/\"406-ut0vzoCuidvyMf8arZpMpJ6ZRDw\"\n1 < Via: 1.1 vegur\n1 < Cache-Control: max-age=14400\n1 < CF-Cache-Status: HIT\n1 < Age: 6577\n1 < Report-To: {\"endpoints\":[{\"url\":\"https:\\\/\\\/a.nel.cloudflare.com\\\/report\\\/v3?s=Vzg%2Bo7JTpUA2QGZlGNKHdGil5p7rRzRKaZVefLVWvYebzRCsg6Hqv6Nnye6tgaNidRHKtwkfamLOFZQNqQSGyGvxlKzemBjaa%2FBSjJ6tBjY4p4KGa1j7MpH5SQ%3D%3D\"}],\"group\":\"cf-nel\",\"max_age\":604800}\n1 < NEL: {\"success_fraction\":0,\"report_to\":\"cf-nel\",\"max_age\":604800}\n1 < Vary: Accept-Encoding\n1 < Server: cloudflare\n1 < CF-RAY: 771c4285e8458986-SIN\n{\"page\":2,\"per_page\":6,\"total\":12,\"total_pages\":2,\"data\":[{\"id\":7,\"email\":\"michael.lawson@reqres.in\",\"first_name\":\"Michael\",\"last_name\":\"Lawson\",\"avatar\":\"https:\/\/reqres.in\/img\/faces\/7-image.jpg\"},{\"id\":8,\"email\":\"lindsay.ferguson@reqres.in\",\"first_name\":\"Lindsay\",\"last_name\":\"Ferguson\",\"avatar\":\"https:\/\/reqres.in\/img\/faces\/8-image.jpg\"},{\"id\":9,\"email\":\"tobias.funke@reqres.in\",\"first_name\":\"Tobias\",\"last_name\":\"Funke\",\"avatar\":\"https:\/\/reqres.in\/img\/faces\/9-image.jpg\"},{\"id\":10,\"email\":\"byron.fields@reqres.in\",\"first_name\":\"Byron\",\"last_name\":\"Fields\",\"avatar\":\"https:\/\/reqres.in\/img\/faces\/10-image.jpg\"},{\"id\":11,\"email\":\"george.edwards@reqres.in\",\"first_name\":\"George\",\"last_name\":\"Edwards\",\"avatar\":\"https:\/\/reqres.in\/img\/faces\/11-image.jpg\"},{\"id\":12,\"email\":\"rachel.howell@reqres.in\",\"first_name\":\"Rachel\",\"last_name\":\"Howell\",\"avatar\":\"https:\/\/reqres.in\/img\/faces\/12-image.jpg\"}],\"support\":{\"url\":\"https:\/\/reqres.in\/#support-heading\",\"text\":\"To keep ReqRes free, contributions towards server costs are appreciated!\"}}\n\n"},{"result":{"nanos":65700,"millis":0.0657,"status":"passed"},"step":{"line":11,"prefix":"Then","index":2,"text":"status 200"}},{"result":{"nanos":258308200,"millis":258.3082,"status":"passed"},"step":{"line":12,"prefix":"And","index":3,"text":"print response.data"},"stepLog":"21:08:38.264 [print] [\n  {\n    \"id\": 7,\n    \"email\": \"michael.lawson@reqres.in\",\n    \"first_name\": \"Michael\",\n    \"last_name\": \"Lawson\",\n    \"avatar\": \"https:\/\/reqres.in\/img\/faces\/7-image.jpg\"\n  },\n  {\n    \"id\": 8,\n    \"email\": \"lindsay.ferguson@reqres.in\",\n    \"first_name\": \"Lindsay\",\n    \"last_name\": \"Ferguson\",\n    \"avatar\": \"https:\/\/reqres.in\/img\/faces\/8-image.jpg\"\n  },\n  {\n    \"id\": 9,\n    \"email\": \"tobias.funke@reqres.in\",\n    \"first_name\": \"Tobias\",\n    \"last_name\": \"Funke\",\n    \"avatar\": \"https:\/\/reqres.in\/img\/faces\/9-image.jpg\"\n  },\n  {\n    \"id\": 10,\n    \"email\": \"byron.fields@reqres.in\",\n    \"first_name\": \"Byron\",\n    \"last_name\": \"Fields\",\n    \"avatar\": \"https:\/\/reqres.in\/img\/faces\/10-image.jpg\"\n  },\n  {\n    \"id\": 11,\n    \"email\": \"george.edwards@reqres.in\",\n    \"first_name\": \"George\",\n    \"last_name\": \"Edwards\",\n    \"avatar\": \"https:\/\/reqres.in\/img\/faces\/11-image.jpg\"\n  },\n  {\n    \"id\": 12,\n    \"email\": \"rachel.howell@reqres.in\",\n    \"first_name\": \"Rachel\",\n    \"last_name\": \"Howell\",\n    \"avatar\": \"https:\/\/reqres.in\/img\/faces\/12-image.jpg\"\n  }\n]\n \n"},{"result":{"nanos":27441200,"millis":27.4412,"status":"passed"},"step":{"line":13,"prefix":"And","index":4,"text":"print response.data[4]"},"stepLog":"21:08:38.295 [print] {\n  \"id\": 11,\n  \"email\": \"george.edwards@reqres.in\",\n  \"first_name\": \"George\",\n  \"last_name\": \"Edwards\",\n  \"avatar\": \"https:\/\/reqres.in\/img\/faces\/11-image.jpg\"\n}\n \n"},{"result":{"nanos":115026200,"millis":115.0262,"status":"passed"},"step":{"line":14,"prefix":"And","index":5,"text":"match response.data[0].first_name != null"}},{"result":{"nanos":9832100,"millis":9.8321,"status":"passed"},"step":{"line":15,"prefix":"And","index":6,"text":"match $.data[3].id == 10"}},{"result":{"nanos":2440400,"millis":2.4404,"status":"passed"},"step":{"line":16,"prefix":"And","index":7,"text":"match response.data[4].last_name == 'Edwards'"}},{"result":{"nanos":2345900,"millis":2.3459,"status":"passed"},"step":{"line":17,"prefix":"And","index":8,"text":"match response.page == 2"}},{"result":{"nanos":4325300,"errorMessage":"match failed: EQUALS\n  $ | not equal (NUMBER:NUMBER)\n  6\n  8\n\nsrc\/test\/java\/Sample\/GetUser.feature:18","millis":4.3253,"status":"failed"},"step":{"line":18,"prefix":"And","index":9,"text":"match response.per_page == 8"},"stepLog":"21:08:38.433 src\/test\/java\/Sample\/GetUser.feature:18\nAnd match response.per_page == 8\nmatch failed: EQUALS\n  $ | not equal (NUMBER:NUMBER)\n  6\n  8\n\nsrc\/test\/java\/Sample\/GetUser.feature:18\n"},{"result":{"nanos":0,"millis":0.0,"status":"skipped"},"step":{"line":19,"prefix":"And","index":10,"text":"match response.per_page == 6"}},{"result":{"nanos":0,"millis":0.0,"status":"skipped"},"step":{"line":20,"prefix":"And","index":11,"text":"assert response.data.length == 6"}}],"line":8,"description":"","durationMillis":2362.396,"failed":true,"error":"match failed: EQUALS\n  $ | not equal (NUMBER:NUMBER)\n  6\n  8\n\nsrc\/test\/java\/Sample\/GetUser.feature:18","executorName":"main","name":"Perform get request for List User","startTime":1669734516009,"refId":"[1:8]","endTime":1669734518433,"exampleIndex":-1},{"sectionIndex":1,"stepResults":[{"result":{"nanos":1934100,"millis":1.9341,"status":"passed"},"step":{"background":true,"line":4,"prefix":"*","index":0,"text":"url 'https:\/\/reqres.in\/api'"}},{"result":{"nanos":1916800,"millis":1.9168,"status":"passed"},"step":{"background":true,"line":5,"prefix":"*","index":1,"text":"header Accept = 'application\/json'"}},{"result":{"nanos":1037800,"millis":1.0378,"status":"passed"},"step":{"line":24,"prefix":"Given","index":0,"text":"path '\/users?page=2'"}},{"result":{"nanos":302223300,"millis":302.2233,"status":"passed"},"step":{"line":25,"prefix":"When","index":1,"text":"method GET"},"stepLog":"21:08:38.474 request:\n1 > GET https:\/\/reqres.in\/api\/users%3Fpage=2\n1 > Accept: application\/json\n1 > Host: reqres.in\n1 > Connection: Keep-Alive\n1 > User-Agent: Apache-HttpClient\/4.5.13 (Java\/17.0.5)\n1 > Accept-Encoding: gzip,deflate\n\n\n21:08:38.767 response time in milliseconds: 291\n1 < 200\n1 < Date: Tue, 29 Nov 2022 15:08:39 GMT\n1 < Content-Type: application\/json; charset=utf-8\n1 < Transfer-Encoding: chunked\n1 < Connection: keep-alive\n1 < X-Powered-By: Express\n1 < Access-Control-Allow-Origin: *\n1 < Etag: W\/\"2c1-N6Rqerxquq2kgQhL51EiSg4x0R8\"\n1 < Via: 1.1 vegur\n1 < Cache-Control: max-age=14400\n1 < CF-Cache-Status: HIT\n1 < Age: 253\n1 < Report-To: {\"endpoints\":[{\"url\":\"https:\\\/\\\/a.nel.cloudflare.com\\\/report\\\/v3?s=nBNR0QEJQrh7u%2F8t%2BT1zWbIc1m9tclGfxGfqt9UNaRIZWymsa58CkHNF95ALujUxnNMLu134p2u2r02rbl28D5MGHC29iT0BHqLOEmvB8ZzuXb6Yay0n2XTXvg%3D%3D\"}],\"group\":\"cf-nel\",\"max_age\":604800}\n1 < NEL: {\"success_fraction\":0,\"report_to\":\"cf-nel\",\"max_age\":604800}\n1 < Vary: Accept-Encoding\n1 < Server: cloudflare\n1 < CF-RAY: 771c428b5f154a23-SIN\n{\"page\":1,\"per_page\":6,\"total\":12,\"total_pages\":2,\"data\":[{\"id\":1,\"name\":\"cerulean\",\"year\":2000,\"color\":\"#98B2D1\",\"pantone_value\":\"15-4020\"},{\"id\":2,\"name\":\"fuchsia rose\",\"year\":2001,\"color\":\"#C74375\",\"pantone_value\":\"17-2031\"},{\"id\":3,\"name\":\"true red\",\"year\":2002,\"color\":\"#BF1932\",\"pantone_value\":\"19-1664\"},{\"id\":4,\"name\":\"aqua sky\",\"year\":2003,\"color\":\"#7BC4C4\",\"pantone_value\":\"14-4811\"},{\"id\":5,\"name\":\"tigerlily\",\"year\":2004,\"color\":\"#E2583E\",\"pantone_value\":\"17-1456\"},{\"id\":6,\"name\":\"blue turquoise\",\"year\":2005,\"color\":\"#53B0AE\",\"pantone_value\":\"15-5217\"}],\"support\":{\"url\":\"https:\/\/reqres.in\/#support-heading\",\"text\":\"To keep ReqRes free, contributions towards server costs are appreciated!\"}}\n\n"},{"result":{"nanos":31700,"millis":0.0317,"status":"passed"},"step":{"line":26,"prefix":"Then","index":2,"text":"status 200"}},{"result":{"nanos":4711300,"millis":4.7113,"status":"passed"},"step":{"line":27,"prefix":"*","index":3,"text":"print response.data[3]"},"stepLog":"21:08:38.776 [print] {\n  \"id\": 4,\n  \"name\": \"aqua sky\",\n  \"year\": 2003,\n  \"color\": \"#7BC4C4\",\n  \"pantone_value\": \"14-4811\"\n}\n \n"}],"executorName":"main","line":23,"name":"Get API with background","description":"","durationMillis":311.855,"startTime":1669734518459,"failed":false,"refId":"[2:23]","endTime":1669734518777,"exampleIndex":-1},{"sectionIndex":2,"stepResults":[{"result":{"nanos":665400,"millis":0.6654,"status":"passed"},"step":{"background":true,"line":4,"prefix":"*","index":0,"text":"url 'https:\/\/reqres.in\/api'"}},{"result":{"nanos":368600,"millis":0.3686,"status":"passed"},"step":{"background":true,"line":5,"prefix":"*","index":1,"text":"header Accept = 'application\/json'"}},{"result":{"nanos":593900,"millis":0.5939,"status":"passed"},"step":{"line":30,"prefix":"Given","index":0,"text":"path '\/users'"}},{"result":{"nanos":3085000,"millis":3.085,"status":"passed"},"step":{"line":31,"prefix":"And","index":1,"text":"param page = 2"}},{"result":{"nanos":293412800,"millis":293.4128,"status":"passed"},"step":{"line":32,"prefix":"When","index":2,"text":"method GET"},"stepLog":"21:08:38.836 request:\n1 > GET https:\/\/reqres.in\/api\/users?page=2\n1 > Accept: application\/json\n1 > Host: reqres.in\n1 > Connection: Keep-Alive\n1 > User-Agent: Apache-HttpClient\/4.5.13 (Java\/17.0.5)\n1 > Accept-Encoding: gzip,deflate\n\n\n21:08:39.120 response time in milliseconds: 282\n1 < 200\n1 < Date: Tue, 29 Nov 2022 15:08:39 GMT\n1 < Content-Type: application\/json; charset=utf-8\n1 < Transfer-Encoding: chunked\n1 < Connection: keep-alive\n1 < X-Powered-By: Express\n1 < Access-Control-Allow-Origin: *\n1 < Etag: W\/\"406-ut0vzoCuidvyMf8arZpMpJ6ZRDw\"\n1 < Via: 1.1 vegur\n1 < Cache-Control: max-age=14400\n1 < CF-Cache-Status: HIT\n1 < Age: 2873\n1 < Report-To: {\"endpoints\":[{\"url\":\"https:\\\/\\\/a.nel.cloudflare.com\\\/report\\\/v3?s=Ul8eHQDaMErU8m7Nco93DLLbV4p4ClB%2BVD%2BdkZChHjhfBmgcgJ7ZBj3dbeoO5lDXxQw6SSAgGkw9cUhKDnJGjhwqW3kV%2BLUsSb2TVR8hTCgSTFeuCR0XcRYFWw%3D%3D\"}],\"group\":\"cf-nel\",\"max_age\":604800}\n1 < NEL: {\"success_fraction\":0,\"report_to\":\"cf-nel\",\"max_age\":604800}\n1 < Vary: Accept-Encoding\n1 < Server: cloudflare\n1 < CF-RAY: 771c428d8a2787ef-SIN\n{\"page\":2,\"per_page\":6,\"total\":12,\"total_pages\":2,\"data\":[{\"id\":7,\"email\":\"michael.lawson@reqres.in\",\"first_name\":\"Michael\",\"last_name\":\"Lawson\",\"avatar\":\"https:\/\/reqres.in\/img\/faces\/7-image.jpg\"},{\"id\":8,\"email\":\"lindsay.ferguson@reqres.in\",\"first_name\":\"Lindsay\",\"last_name\":\"Ferguson\",\"avatar\":\"https:\/\/reqres.in\/img\/faces\/8-image.jpg\"},{\"id\":9,\"email\":\"tobias.funke@reqres.in\",\"first_name\":\"Tobias\",\"last_name\":\"Funke\",\"avatar\":\"https:\/\/reqres.in\/img\/faces\/9-image.jpg\"},{\"id\":10,\"email\":\"byron.fields@reqres.in\",\"first_name\":\"Byron\",\"last_name\":\"Fields\",\"avatar\":\"https:\/\/reqres.in\/img\/faces\/10-image.jpg\"},{\"id\":11,\"email\":\"george.edwards@reqres.in\",\"first_name\":\"George\",\"last_name\":\"Edwards\",\"avatar\":\"https:\/\/reqres.in\/img\/faces\/11-image.jpg\"},{\"id\":12,\"email\":\"rachel.howell@reqres.in\",\"first_name\":\"Rachel\",\"last_name\":\"Howell\",\"avatar\":\"https:\/\/reqres.in\/img\/faces\/12-image.jpg\"}],\"support\":{\"url\":\"https:\/\/reqres.in\/#support-heading\",\"text\":\"To keep ReqRes free, contributions towards server costs are appreciated!\"}}\n\n"},{"result":{"nanos":25200,"millis":0.0252,"status":"passed"},"step":{"line":33,"prefix":"Then","index":3,"text":"status 200"}},{"result":{"nanos":3367200,"millis":3.3672,"status":"passed"},"step":{"line":34,"prefix":"And","index":4,"text":"print responseHeaders"},"stepLog":"21:08:39.125 [print] {\n  \"Date\": [\n    \"Tue, 29 Nov 2022 15:08:39 GMT\"\n  ],\n  \"Content-Type\": [\n    \"application\/json; charset=utf-8\"\n  ],\n  \"Transfer-Encoding\": [\n    \"chunked\"\n  ],\n  \"Connection\": [\n    \"keep-alive\"\n  ],\n  \"X-Powered-By\": [\n    \"Express\"\n  ],\n  \"Access-Control-Allow-Origin\": [\n    \"*\"\n  ],\n  \"Etag\": [\n    \"W\/\\\"406-ut0vzoCuidvyMf8arZpMpJ6ZRDw\\\"\"\n  ],\n  \"Via\": [\n    \"1.1 vegur\"\n  ],\n  \"Cache-Control\": [\n    \"max-age=14400\"\n  ],\n  \"CF-Cache-Status\": [\n    \"HIT\"\n  ],\n  \"Age\": [\n    \"2873\"\n  ],\n  \"Report-To\": [\n    \"{\\\"endpoints\\\":[{\\\"url\\\":\\\"https:\\\\\/\\\\\/a.nel.cloudflare.com\\\\\/report\\\\\/v3?s=Ul8eHQDaMErU8m7Nco93DLLbV4p4ClB%2BVD%2BdkZChHjhfBmgcgJ7ZBj3dbeoO5lDXxQw6SSAgGkw9cUhKDnJGjhwqW3kV%2BLUsSb2TVR8hTCgSTFeuCR0XcRYFWw%3D%3D\\\"}],\\\"group\\\":\\\"cf-nel\\\",\\\"max_age\\\":604800}\"\n  ],\n  \"NEL\": [\n    \"{\\\"success_fraction\\\":0,\\\"report_to\\\":\\\"cf-nel\\\",\\\"max_age\\\":604800}\"\n  ],\n  \"Vary\": [\n    \"Accept-Encoding\"\n  ],\n  \"Server\": [\n    \"cloudflare\"\n  ],\n  \"CF-RAY\": [\n    \"771c428d8a2787ef-SIN\"\n  ],\n  \"Set-Cookie\": [\n  ]\n}\n \n"},{"result":{"nanos":2755300,"millis":2.7553,"status":"passed"},"step":{"line":35,"prefix":"And","index":5,"text":"print responseTime"},"stepLog":"21:08:39.128 [print] 282 \n"},{"result":{"nanos":4524500,"millis":4.5245,"status":"passed"},"step":{"line":36,"prefix":"And","index":6,"text":"print responseStatus"},"stepLog":"21:08:39.133 [print] 200 \n"},{"result":{"nanos":2362300,"millis":2.3623,"status":"passed"},"step":{"line":37,"prefix":"And","index":7,"text":"print responseCookies"},"stepLog":"21:08:39.135 [print] {\n}\n \n"}],"executorName":"main","line":29,"name":"Get API with background but with path and param separated","description":"","durationMillis":311.1602,"startTime":1669734518822,"failed":false,"refId":"[3:29]","endTime":1669734519137,"exampleIndex":-1},{"sectionIndex":3,"stepResults":[{"result":{"nanos":738200,"millis":0.7382,"status":"passed"},"step":{"background":true,"line":4,"prefix":"*","index":0,"text":"url 'https:\/\/reqres.in\/api'"}},{"result":{"nanos":766000,"millis":0.766,"status":"passed"},"step":{"background":true,"line":5,"prefix":"*","index":1,"text":"header Accept = 'application\/json'"}},{"result":{"nanos":214200,"millis":0.2142,"status":"passed"},"step":{"line":41,"prefix":"Given","index":0,"text":"path '\/users?page=2'"}},{"result":{"nanos":1355969100,"millis":1355.9691,"status":"passed"},"step":{"line":42,"prefix":"When","index":1,"text":"method GET"},"stepLog":"21:08:39.158 request:\n1 > GET https:\/\/reqres.in\/api\/users%3Fpage=2\n1 > Accept: application\/json\n1 > Host: reqres.in\n1 > Connection: Keep-Alive\n1 > User-Agent: Apache-HttpClient\/4.5.13 (Java\/17.0.5)\n1 > Accept-Encoding: gzip,deflate\n\n\n21:08:40.507 response time in milliseconds: 1348\n1 < 200\n1 < Date: Tue, 29 Nov 2022 15:08:41 GMT\n1 < Content-Type: application\/json; charset=utf-8\n1 < Transfer-Encoding: chunked\n1 < Connection: keep-alive\n1 < X-Powered-By: Express\n1 < Access-Control-Allow-Origin: *\n1 < Etag: W\/\"2c1-N6Rqerxquq2kgQhL51EiSg4x0R8\"\n1 < Via: 1.1 vegur\n1 < Cache-Control: max-age=14400\n1 < CF-Cache-Status: REVALIDATED\n1 < Report-To: {\"endpoints\":[{\"url\":\"https:\\\/\\\/a.nel.cloudflare.com\\\/report\\\/v3?s=QUejsaNbESUKLdwT4khM4Rqn9q4%2FInud6pHwe0tpMoAlis3gZ8zHF2gMlcgtwdmFkOA%2FnrgUyhDABLx81Oz32tVyu0T9iJyRZ%2BBlRIVQ8g2mQNfYd5%2FUFNeXiQ%3D%3D\"}],\"group\":\"cf-nel\",\"max_age\":604800}\n1 < NEL: {\"success_fraction\":0,\"report_to\":\"cf-nel\",\"max_age\":604800}\n1 < Vary: Accept-Encoding\n1 < Server: cloudflare\n1 < CF-RAY: 771c428f58844cdd-SIN\n{\"page\":1,\"per_page\":6,\"total\":12,\"total_pages\":2,\"data\":[{\"id\":1,\"name\":\"cerulean\",\"year\":2000,\"color\":\"#98B2D1\",\"pantone_value\":\"15-4020\"},{\"id\":2,\"name\":\"fuchsia rose\",\"year\":2001,\"color\":\"#C74375\",\"pantone_value\":\"17-2031\"},{\"id\":3,\"name\":\"true red\",\"year\":2002,\"color\":\"#BF1932\",\"pantone_value\":\"19-1664\"},{\"id\":4,\"name\":\"aqua sky\",\"year\":2003,\"color\":\"#7BC4C4\",\"pantone_value\":\"14-4811\"},{\"id\":5,\"name\":\"tigerlily\",\"year\":2004,\"color\":\"#E2583E\",\"pantone_value\":\"17-1456\"},{\"id\":6,\"name\":\"blue turquoise\",\"year\":2005,\"color\":\"#53B0AE\",\"pantone_value\":\"15-5217\"}],\"support\":{\"url\":\"https:\/\/reqres.in\/#support-heading\",\"text\":\"To keep ReqRes free, contributions towards server costs are appreciated!\"}}\n\n"},{"result":{"nanos":46500,"millis":0.0465,"status":"passed"},"step":{"line":43,"prefix":"Then","index":2,"text":"status 200"}},{"result":{"nanos":14081800,"millis":14.0818,"status":"passed"},"step":{"line":44,"prefix":"And","index":3,"text":"print response.data[0].name"},"stepLog":"21:08:40.525 [print] cerulean \n"},{"result":{"nanos":13587100,"millis":13.5871,"status":"passed"},"step":{"line":45,"prefix":"And","index":4,"text":"print response.data[0].year"},"stepLog":"21:08:40.540 [print] 2000 \n"}],"executorName":"main","line":40,"name":"Get API with getting a specified attribute","description":"","durationMillis":1385.4029,"startTime":1669734519151,"failed":false,"refId":"[4:40]","endTime":1669734520541,"exampleIndex":-1},{"sectionIndex":4,"stepResults":[{"result":{"nanos":733600,"millis":0.7336,"status":"passed"},"step":{"background":true,"line":4,"prefix":"*","index":0,"text":"url 'https:\/\/reqres.in\/api'"}},{"result":{"nanos":687400,"millis":0.6874,"status":"passed"},"step":{"background":true,"line":5,"prefix":"*","index":1,"text":"header Accept = 'application\/json'"}},{"result":{"nanos":1365300,"millis":1.3653,"status":"passed"},"step":{"line":48,"prefix":"Given","index":0,"text":"path '\/users\/2'"}},{"result":{"nanos":291864600,"millis":291.8646,"status":"passed"},"step":{"line":49,"prefix":"When","index":1,"text":"method  GET"},"stepLog":"21:08:40.594 request:\n1 > GET https:\/\/reqres.in\/api\/users\/2\n1 > Accept: application\/json\n1 > Host: reqres.in\n1 > Connection: Keep-Alive\n1 > User-Agent: Apache-HttpClient\/4.5.13 (Java\/17.0.5)\n1 > Accept-Encoding: gzip,deflate\n\n\n21:08:40.877 response time in milliseconds: 282\n1 < 200\n1 < Date: Tue, 29 Nov 2022 15:08:41 GMT\n1 < Content-Type: application\/json; charset=utf-8\n1 < Transfer-Encoding: chunked\n1 < Connection: keep-alive\n1 < X-Powered-By: Express\n1 < Access-Control-Allow-Origin: *\n1 < Etag: W\/\"118-pbdwwFo9SKNhD3Lx5iHJyngpq00\"\n1 < Via: 1.1 vegur\n1 < Cache-Control: max-age=14400\n1 < CF-Cache-Status: HIT\n1 < Age: 7180\n1 < Report-To: {\"endpoints\":[{\"url\":\"https:\\\/\\\/a.nel.cloudflare.com\\\/report\\\/v3?s=s2teOhJtDY%2F98NmiRSue5jv1MnCA1Bjn0QIJDeQgaJF3zhLzo4d0uB1MUkUwFr0m%2F6klBvONkCTEinzVOpC8LJx6dgejoPCj4sYIGRE8REgLvXKgAf4MXoI97A%3D%3D\"}],\"group\":\"cf-nel\",\"max_age\":604800}\n1 < NEL: {\"success_fraction\":0,\"report_to\":\"cf-nel\",\"max_age\":604800}\n1 < Vary: Accept-Encoding\n1 < Server: cloudflare\n1 < CF-RAY: 771c42986b54896b-SIN\n{\"data\":{\"id\":2,\"email\":\"janet.weaver@reqres.in\",\"first_name\":\"Janet\",\"last_name\":\"Weaver\",\"avatar\":\"https:\/\/reqres.in\/img\/faces\/2-image.jpg\"},\"support\":{\"url\":\"https:\/\/reqres.in\/#support-heading\",\"text\":\"To keep ReqRes free, contributions towards server costs are appreciated!\"}}\n\n"},{"result":{"nanos":49300,"millis":0.0493,"status":"passed"},"step":{"line":50,"prefix":"Then","index":2,"text":"status 200"}},{"result":{"nanos":4008300,"millis":4.0083,"status":"passed"},"step":{"line":51,"prefix":"And","index":3,"text":"print response.data"},"stepLog":"21:08:40.886 [print] {\n  \"id\": 2,\n  \"email\": \"janet.weaver@reqres.in\",\n  \"first_name\": \"Janet\",\n  \"last_name\": \"Weaver\",\n  \"avatar\": \"https:\/\/reqres.in\/img\/faces\/2-image.jpg\"\n}\n \n"}],"executorName":"main","line":47,"name":"Get API with single user","description":"","durationMillis":298.7085,"startTime":1669734520581,"failed":false,"refId":"[5:47]","endTime":1669734520886,"exampleIndex":-1}],"callDepth":0,"name":"Perform GET request","description":"","resultDate":"2022-11-29 09:08:40 PM","durationMillis":4669.5226,"passedCount":4}