{"failedCount":1,"prefixedPath":"src\/test\/java\/Sample\/GetUser.feature","packageQualifiedName":"src.test.java.Sample.GetUser","loopIndex":-1,"relativePath":"src\/test\/java\/Sample\/GetUser.feature","scenarioResults":[{"sectionIndex":3,"stepResults":[{"result":{"nanos":179176800,"millis":179.1768,"status":"passed"},"step":{"background":true,"line":4,"prefix":"*","index":0,"text":"url 'https:\/\/reqres.in\/api'"}},{"result":{"nanos":1055800,"millis":1.0558,"status":"passed"},"step":{"line":33,"prefix":"Given","index":0,"text":"path '\/users?page=2'"}},{"result":{"nanos":1835963300,"millis":1835.9633,"status":"passed"},"step":{"line":34,"prefix":"When","index":1,"text":"method GET"},"stepLog":"18:43:25.752 request:\n1 > GET https:\/\/reqres.in\/api\/users%3Fpage=2\n1 > Host: reqres.in\n1 > Connection: Keep-Alive\n1 > User-Agent: Apache-HttpClient\/4.5.13 (Java\/17.0.5)\n1 > Accept-Encoding: gzip,deflate\n\n\n18:43:26.888 response time in milliseconds: 1122\n1 < 200\n1 < Date: Tue, 29 Nov 2022 12:43:27 GMT\n1 < Content-Type: application\/json; charset=utf-8\n1 < Transfer-Encoding: chunked\n1 < Connection: keep-alive\n1 < X-Powered-By: Express\n1 < Access-Control-Allow-Origin: *\n1 < Etag: W\/\"2c1-N6Rqerxquq2kgQhL51EiSg4x0R8\"\n1 < Via: 1.1 vegur\n1 < Cache-Control: max-age=14400\n1 < CF-Cache-Status: REVALIDATED\n1 < Report-To: {\"endpoints\":[{\"url\":\"https:\\\/\\\/a.nel.cloudflare.com\\\/report\\\/v3?s=9ZXHxMyvhi3mgyRDiswbamBfN5hkNOpRuEbxE0ij9QxF%2BPdNlmIT87V%2FavnRur%2BPIOGaCqAgMnxfsAWJ6DF6pQ17SL710mMdHo4%2BKmp7hPD1h2bIM175kG8eFw%3D%3D\"}],\"group\":\"cf-nel\",\"max_age\":604800}\n1 < NEL: {\"success_fraction\":0,\"report_to\":\"cf-nel\",\"max_age\":604800}\n1 < Vary: Accept-Encoding\n1 < Server: cloudflare\n1 < CF-RAY: 771b6dd58c79879f-SIN\n{\"page\":1,\"per_page\":6,\"total\":12,\"total_pages\":2,\"data\":[{\"id\":1,\"name\":\"cerulean\",\"year\":2000,\"color\":\"#98B2D1\",\"pantone_value\":\"15-4020\"},{\"id\":2,\"name\":\"fuchsia rose\",\"year\":2001,\"color\":\"#C74375\",\"pantone_value\":\"17-2031\"},{\"id\":3,\"name\":\"true red\",\"year\":2002,\"color\":\"#BF1932\",\"pantone_value\":\"19-1664\"},{\"id\":4,\"name\":\"aqua sky\",\"year\":2003,\"color\":\"#7BC4C4\",\"pantone_value\":\"14-4811\"},{\"id\":5,\"name\":\"tigerlily\",\"year\":2004,\"color\":\"#E2583E\",\"pantone_value\":\"17-1456\"},{\"id\":6,\"name\":\"blue turquoise\",\"year\":2005,\"color\":\"#53B0AE\",\"pantone_value\":\"15-5217\"}],\"support\":{\"url\":\"https:\/\/reqres.in\/#support-heading\",\"text\":\"To keep ReqRes free, contributions towards server costs are appreciated!\"}}\n\n"},{"result":{"nanos":36900,"millis":0.0369,"status":"passed"},"step":{"line":35,"prefix":"Then","index":2,"text":"status 200"}},{"result":{"nanos":40491000,"errorMessage":"js failed:\n>>>>\n01: karate.log('[print]',response.data[0].email:)\n<<<<\norg.graalvm.polyglot.PolyglotException: SyntaxError: Unnamed:1:43 Expected , but found :\r\nkarate.log('[print]',response.data[0].email:)\r\n                                           ^\n\n- org.graalvm.polyglot.Context.eval(Context.java:425)\n- com.intuit.karate.graal.JsEngine.evalForValue(JsEngine.java:139)\n- com.intuit.karate.graal.JsEngine.eval(JsEngine.java:135)\n- com.intuit.karate.core.ScenarioEngine.evalJs(ScenarioEngine.java:1190)\n- com.intuit.karate.core.ScenarioEngine.print(ScenarioEngine.java:242)\n- com.intuit.karate.ScenarioActions.print(ScenarioActions.java:308)\n- java.base\/jdk.internal.reflect.NativeMethodAccessorImpl.invoke0(Native Method)\n\nsrc\/test\/java\/Sample\/GetUser.feature:36","millis":40.491,"status":"failed"},"step":{"line":36,"prefix":"And","index":3,"text":"print response.data[0].email:"},"stepLog":"18:43:27.028 src\/test\/java\/Sample\/GetUser.feature:36\nAnd print response.data[0].email:\njs failed:\n>>>>\n01: karate.log('[print]',response.data[0].email:)\n<<<<\norg.graalvm.polyglot.PolyglotException: SyntaxError: Unnamed:1:43 Expected , but found :\r\nkarate.log('[print]',response.data[0].email:)\r\n                                           ^\n\n- org.graalvm.polyglot.Context.eval(Context.java:425)\n- com.intuit.karate.graal.JsEngine.evalForValue(JsEngine.java:139)\n- com.intuit.karate.graal.JsEngine.eval(JsEngine.java:135)\n- com.intuit.karate.core.ScenarioEngine.evalJs(ScenarioEngine.java:1190)\n- com.intuit.karate.core.ScenarioEngine.print(ScenarioEngine.java:242)\n- com.intuit.karate.ScenarioActions.print(ScenarioActions.java:308)\n- java.base\/jdk.internal.reflect.NativeMethodAccessorImpl.invoke0(Native Method)\n\nsrc\/test\/java\/Sample\/GetUser.feature:36\n"},{"result":{"nanos":0,"millis":0.0,"status":"skipped"},"step":{"line":37,"prefix":"And","index":4,"text":"print response.data[1].first_name:"}}],"line":32,"description":"","durationMillis":2056.7238,"failed":true,"error":"js failed:\n>>>>\n01: karate.log('[print]',response.data[0].email:)\n<<<<\norg.graalvm.polyglot.PolyglotException: SyntaxError: Unnamed:1:43 Expected , but found :\r\nkarate.log('[print]',response.data[0].email:)\r\n                                           ^\n\n- org.graalvm.polyglot.Context.eval(Context.java:425)\n- com.intuit.karate.graal.JsEngine.evalForValue(JsEngine.java:139)\n- com.intuit.karate.graal.JsEngine.eval(JsEngine.java:135)\n- com.intuit.karate.core.ScenarioEngine.evalJs(ScenarioEngine.java:1190)\n- com.intuit.karate.core.ScenarioEngine.print(ScenarioEngine.java:242)\n- com.intuit.karate.ScenarioActions.print(ScenarioActions.java:308)\n- java.base\/jdk.internal.reflect.NativeMethodAccessorImpl.invoke0(Native Method)\n\nsrc\/test\/java\/Sample\/GetUser.feature:36","executorName":"main","name":"Get API with getting a specified attribute","startTime":1669725804932,"refId":"[4:32]","endTime":1669725807028,"exampleIndex":-1}],"callDepth":0,"name":"Perform GET request","description":"","resultDate":"2022-11-29 06:43:27 PM","durationMillis":2056.7238,"passedCount":0}