{"failedCount":0,"prefixedPath":"src\/test\/java\/Sample\/GetUser.feature","packageQualifiedName":"src.test.java.Sample.GetUser","loopIndex":-1,"relativePath":"src\/test\/java\/Sample\/GetUser.feature","scenarioResults":[{"sectionIndex":3,"stepResults":[{"result":{"nanos":195986300,"millis":195.9863,"status":"passed"},"step":{"background":true,"line":4,"prefix":"*","index":0,"text":"url 'https:\/\/reqres.in\/api'"}},{"result":{"nanos":1345800,"millis":1.3458,"status":"passed"},"step":{"line":33,"prefix":"Given","index":0,"text":"path '\/users?page=2'"}},{"result":{"nanos":2013391000,"millis":2013.391,"status":"passed"},"step":{"line":34,"prefix":"When","index":1,"text":"method GET"},"stepLog":"18:55:24.210 request:\n1 > GET https:\/\/reqres.in\/api\/users%3Fpage=2\n1 > Host: reqres.in\n1 > Connection: Keep-Alive\n1 > User-Agent: Apache-HttpClient\/4.5.13 (Java\/17.0.5)\n1 > Accept-Encoding: gzip,deflate\n\n\n18:55:25.506 response time in milliseconds: 1281\n1 < 200\n1 < Date: Tue, 29 Nov 2022 12:55:26 GMT\n1 < Content-Type: application\/json; charset=utf-8\n1 < Transfer-Encoding: chunked\n1 < Connection: keep-alive\n1 < X-Powered-By: Express\n1 < Access-Control-Allow-Origin: *\n1 < Etag: W\/\"2c1-N6Rqerxquq2kgQhL51EiSg4x0R8\"\n1 < Via: 1.1 vegur\n1 < Cache-Control: max-age=14400\n1 < CF-Cache-Status: HIT\n1 < Age: 5331\n1 < Report-To: {\"endpoints\":[{\"url\":\"https:\\\/\\\/a.nel.cloudflare.com\\\/report\\\/v3?s=Dh5%2F87WqWyq3aTEF7tvhoI6O29kYa7KenULv994A5q5tVCPMBOp71pzTg69vYYfNMcoCQnV27wh%2BEhq%2FuLnlxj1XjiYE0VM60LQLsGoHoWbgQ81ijrIgV0Wu%2BA%3D%3D\"}],\"group\":\"cf-nel\",\"max_age\":604800}\n1 < NEL: {\"success_fraction\":0,\"report_to\":\"cf-nel\",\"max_age\":604800}\n1 < Vary: Accept-Encoding\n1 < Server: cloudflare\n1 < CF-RAY: 771b7f63ea7b4846-SIN\n{\"page\":1,\"per_page\":6,\"total\":12,\"total_pages\":2,\"data\":[{\"id\":1,\"name\":\"cerulean\",\"year\":2000,\"color\":\"#98B2D1\",\"pantone_value\":\"15-4020\"},{\"id\":2,\"name\":\"fuchsia rose\",\"year\":2001,\"color\":\"#C74375\",\"pantone_value\":\"17-2031\"},{\"id\":3,\"name\":\"true red\",\"year\":2002,\"color\":\"#BF1932\",\"pantone_value\":\"19-1664\"},{\"id\":4,\"name\":\"aqua sky\",\"year\":2003,\"color\":\"#7BC4C4\",\"pantone_value\":\"14-4811\"},{\"id\":5,\"name\":\"tigerlily\",\"year\":2004,\"color\":\"#E2583E\",\"pantone_value\":\"17-1456\"},{\"id\":6,\"name\":\"blue turquoise\",\"year\":2005,\"color\":\"#53B0AE\",\"pantone_value\":\"15-5217\"}],\"support\":{\"url\":\"https:\/\/reqres.in\/#support-heading\",\"text\":\"To keep ReqRes free, contributions towards server costs are appreciated!\"}}\n\n"},{"result":{"nanos":42800,"millis":0.0428,"status":"passed"},"step":{"line":35,"prefix":"Then","index":2,"text":"status 200"}},{"result":{"nanos":177881900,"millis":177.8819,"status":"passed"},"step":{"line":36,"prefix":"And","index":3,"text":"print response.data[0].email"},"stepLog":"18:55:25.791 [print] null \n"},{"result":{"nanos":2659200,"millis":2.6592,"status":"passed"},"step":{"line":37,"prefix":"And","index":4,"text":"print response.data[0].first_name"},"stepLog":"18:55:25.797 [print] null \n"}],"executorName":"main","line":32,"name":"Get API with getting a specified attribute","description":"","durationMillis":2391.307,"startTime":1669726523366,"failed":false,"refId":"[4:32]","endTime":1669726525797,"exampleIndex":-1}],"callDepth":0,"name":"Perform GET request","description":"","resultDate":"2022-11-29 06:55:25 PM","durationMillis":2391.307,"passedCount":1}