{"failedCount":0,"prefixedPath":"src\/test\/java\/Sample\/GetUser.feature","packageQualifiedName":"src.test.java.Sample.GetUser","loopIndex":-1,"relativePath":"src\/test\/java\/Sample\/GetUser.feature","scenarioResults":[{"sectionIndex":0,"stepResults":[{"result":{"nanos":154029100,"millis":154.0291,"status":"passed"},"step":{"line":6,"prefix":"Given","index":0,"text":"url 'https:\/\/reqres.in\/api\/users?page=2'"}},{"result":{"nanos":1071691300,"millis":1071.6913,"status":"passed"},"step":{"line":7,"prefix":"When","index":1,"text":"method Get"},"stepLog":"16:51:12.452 request:\n1 > GET https:\/\/reqres.in\/api\/users?page=2\n1 > Host: reqres.in\n1 > Connection: Keep-Alive\n1 > User-Agent: Apache-HttpClient\/4.5.13 (Java\/17.0.5)\n1 > Accept-Encoding: gzip,deflate\n\n\n16:51:13.039 response time in milliseconds: 575\n1 < 200\n1 < Date: Tue, 29 Nov 2022 10:51:13 GMT\n1 < Content-Type: application\/json; charset=utf-8\n1 < Transfer-Encoding: chunked\n1 < Connection: keep-alive\n1 < X-Powered-By: Express\n1 < Access-Control-Allow-Origin: *\n1 < Etag: W\/\"406-ut0vzoCuidvyMf8arZpMpJ6ZRDw\"\n1 < Via: 1.1 vegur\n1 < Cache-Control: max-age=14400\n1 < CF-Cache-Status: HIT\n1 < Age: 1894\n1 < Report-To: {\"endpoints\":[{\"url\":\"https:\\\/\\\/a.nel.cloudflare.com\\\/report\\\/v3?s=xnn4VO5Q1nWOGa0eySk8HWx%2Br2m1D5zOCDwFnN2xSYGTKaTpPkLfTDZjke6h5Ymxuinuo2BZenAPgaR7HtZDWdTqiXHLKHcXXyB4CFbP5Hxlc%2FlhEmJcfc8U7Q%3D%3D\"}],\"group\":\"cf-nel\",\"max_age\":604800}\n1 < NEL: {\"success_fraction\":0,\"report_to\":\"cf-nel\",\"max_age\":604800}\n1 < Vary: Accept-Encoding\n1 < Server: cloudflare\n1 < CF-RAY: 771ac970a8d987d8-SIN\n{\"page\":2,\"per_page\":6,\"total\":12,\"total_pages\":2,\"data\":[{\"id\":7,\"email\":\"michael.lawson@reqres.in\",\"first_name\":\"Michael\",\"last_name\":\"Lawson\",\"avatar\":\"https:\/\/reqres.in\/img\/faces\/7-image.jpg\"},{\"id\":8,\"email\":\"lindsay.ferguson@reqres.in\",\"first_name\":\"Lindsay\",\"last_name\":\"Ferguson\",\"avatar\":\"https:\/\/reqres.in\/img\/faces\/8-image.jpg\"},{\"id\":9,\"email\":\"tobias.funke@reqres.in\",\"first_name\":\"Tobias\",\"last_name\":\"Funke\",\"avatar\":\"https:\/\/reqres.in\/img\/faces\/9-image.jpg\"},{\"id\":10,\"email\":\"byron.fields@reqres.in\",\"first_name\":\"Byron\",\"last_name\":\"Fields\",\"avatar\":\"https:\/\/reqres.in\/img\/faces\/10-image.jpg\"},{\"id\":11,\"email\":\"george.edwards@reqres.in\",\"first_name\":\"George\",\"last_name\":\"Edwards\",\"avatar\":\"https:\/\/reqres.in\/img\/faces\/11-image.jpg\"},{\"id\":12,\"email\":\"rachel.howell@reqres.in\",\"first_name\":\"Rachel\",\"last_name\":\"Howell\",\"avatar\":\"https:\/\/reqres.in\/img\/faces\/12-image.jpg\"}],\"support\":{\"url\":\"https:\/\/reqres.in\/#support-heading\",\"text\":\"To keep ReqRes free, contributions towards server costs are appreciated!\"}}\n\n"},{"result":{"nanos":25200,"millis":0.0252,"status":"passed"},"step":{"line":8,"prefix":"Then","index":2,"text":"status 200"}},{"result":{"nanos":162936000,"millis":162.936,"status":"passed"},"step":{"line":9,"prefix":"*","index":3,"text":"print response.data"},"stepLog":"16:51:13.249 [print] [\n  {\n    \"id\": 7,\n    \"email\": \"michael.lawson@reqres.in\",\n    \"first_name\": \"Michael\",\n    \"last_name\": \"Lawson\",\n    \"avatar\": \"https:\/\/reqres.in\/img\/faces\/7-image.jpg\"\n  },\n  {\n    \"id\": 8,\n    \"email\": \"lindsay.ferguson@reqres.in\",\n    \"first_name\": \"Lindsay\",\n    \"last_name\": \"Ferguson\",\n    \"avatar\": \"https:\/\/reqres.in\/img\/faces\/8-image.jpg\"\n  },\n  {\n    \"id\": 9,\n    \"email\": \"tobias.funke@reqres.in\",\n    \"first_name\": \"Tobias\",\n    \"last_name\": \"Funke\",\n    \"avatar\": \"https:\/\/reqres.in\/img\/faces\/9-image.jpg\"\n  },\n  {\n    \"id\": 10,\n    \"email\": \"byron.fields@reqres.in\",\n    \"first_name\": \"Byron\",\n    \"last_name\": \"Fields\",\n    \"avatar\": \"https:\/\/reqres.in\/img\/faces\/10-image.jpg\"\n  },\n  {\n    \"id\": 11,\n    \"email\": \"george.edwards@reqres.in\",\n    \"first_name\": \"George\",\n    \"last_name\": \"Edwards\",\n    \"avatar\": \"https:\/\/reqres.in\/img\/faces\/11-image.jpg\"\n  },\n  {\n    \"id\": 12,\n    \"email\": \"rachel.howell@reqres.in\",\n    \"first_name\": \"Rachel\",\n    \"last_name\": \"Howell\",\n    \"avatar\": \"https:\/\/reqres.in\/img\/faces\/12-image.jpg\"\n  }\n]\n \n"},{"result":{"nanos":32159600,"millis":32.1596,"status":"passed"},"step":{"line":10,"prefix":"*","index":4,"text":"print response.data[0].id == 7"},"stepLog":"16:51:13.283 [print] true \n"}],"executorName":"main","line":5,"name":"Perform get request for List User","description":"","durationMillis":1420.8412,"startTime":1669719071830,"failed":false,"refId":"[1:5]","endTime":1669719073283,"exampleIndex":-1}],"callDepth":0,"name":"Perform GET request","description":"","resultDate":"2022-11-29 04:51:13 PM","durationMillis":1420.8412,"passedCount":1}