{"failedCount":0,"prefixedPath":"src\/test\/java\/Sample\/GetUser.feature","packageQualifiedName":"src.test.java.Sample.GetUser","loopIndex":-1,"relativePath":"src\/test\/java\/Sample\/GetUser.feature","scenarioResults":[{"sectionIndex":0,"stepResults":[{"result":{"nanos":233889500,"millis":233.8895,"status":"passed"},"step":{"background":true,"line":4,"prefix":"*","index":0,"text":"url 'https:\/\/reqres.in\/api'"}},{"result":{"nanos":1854100,"millis":1.8541,"status":"passed"},"step":{"background":true,"line":5,"prefix":"*","index":1,"text":"header Accept = 'application\/json'"}},{"result":{"nanos":1582000,"millis":1.582,"status":"passed"},"step":{"line":9,"prefix":"Given","index":0,"text":"url 'https:\/\/reqres.in\/api\/users?page=2'"}},{"result":{"nanos":2083529600,"millis":2083.5296,"status":"passed"},"step":{"line":10,"prefix":"When","index":1,"text":"method Get"},"stepLog":"21:04:22.709 request:\n1 > GET https:\/\/reqres.in\/api\/users?page=2\n1 > Accept: application\/json\n1 > Host: reqres.in\n1 > Connection: Keep-Alive\n1 > User-Agent: Apache-HttpClient\/4.5.13 (Java\/17.0.5)\n1 > Accept-Encoding: gzip,deflate\n\n\n21:04:23.768 response time in milliseconds: 1017\n1 < 200\n1 < Date: Tue, 29 Nov 2022 15:04:24 GMT\n1 < Content-Type: application\/json; charset=utf-8\n1 < Transfer-Encoding: chunked\n1 < Connection: keep-alive\n1 < X-Powered-By: Express\n1 < Access-Control-Allow-Origin: *\n1 < Etag: W\/\"406-ut0vzoCuidvyMf8arZpMpJ6ZRDw\"\n1 < Via: 1.1 vegur\n1 < Cache-Control: max-age=14400\n1 < CF-Cache-Status: HIT\n1 < Age: 552\n1 < Report-To: {\"endpoints\":[{\"url\":\"https:\\\/\\\/a.nel.cloudflare.com\\\/report\\\/v3?s=UeK9UtUeAXrxVUuNhy2vz6I7C8ykJyO094%2BGfirmGvJPqKyl8VfVAL5lNDY7QalkXNOL5VHuyczgVHIFBJWxCkBexpmt2MoVNuSyZZqw04WwVAWKapywP9qlsg%3D%3D\"}],\"group\":\"cf-nel\",\"max_age\":604800}\n1 < NEL: {\"success_fraction\":0,\"report_to\":\"cf-nel\",\"max_age\":604800}\n1 < Vary: Accept-Encoding\n1 < Server: cloudflare\n1 < CF-RAY: 771c3c50dfd7a3d6-SIN\n{\"page\":2,\"per_page\":6,\"total\":12,\"total_pages\":2,\"data\":[{\"id\":7,\"email\":\"michael.lawson@reqres.in\",\"first_name\":\"Michael\",\"last_name\":\"Lawson\",\"avatar\":\"https:\/\/reqres.in\/img\/faces\/7-image.jpg\"},{\"id\":8,\"email\":\"lindsay.ferguson@reqres.in\",\"first_name\":\"Lindsay\",\"last_name\":\"Ferguson\",\"avatar\":\"https:\/\/reqres.in\/img\/faces\/8-image.jpg\"},{\"id\":9,\"email\":\"tobias.funke@reqres.in\",\"first_name\":\"Tobias\",\"last_name\":\"Funke\",\"avatar\":\"https:\/\/reqres.in\/img\/faces\/9-image.jpg\"},{\"id\":10,\"email\":\"byron.fields@reqres.in\",\"first_name\":\"Byron\",\"last_name\":\"Fields\",\"avatar\":\"https:\/\/reqres.in\/img\/faces\/10-image.jpg\"},{\"id\":11,\"email\":\"george.edwards@reqres.in\",\"first_name\":\"George\",\"last_name\":\"Edwards\",\"avatar\":\"https:\/\/reqres.in\/img\/faces\/11-image.jpg\"},{\"id\":12,\"email\":\"rachel.howell@reqres.in\",\"first_name\":\"Rachel\",\"last_name\":\"Howell\",\"avatar\":\"https:\/\/reqres.in\/img\/faces\/12-image.jpg\"}],\"support\":{\"url\":\"https:\/\/reqres.in\/#support-heading\",\"text\":\"To keep ReqRes free, contributions towards server costs are appreciated!\"}}\n\n"},{"result":{"nanos":48800,"millis":0.0488,"status":"passed"},"step":{"line":11,"prefix":"Then","index":2,"text":"status 200"}},{"result":{"nanos":244492600,"millis":244.4926,"status":"passed"},"step":{"line":12,"prefix":"And","index":3,"text":"print response.data"},"stepLog":"21:04:24.134 [print] [\n  {\n    \"id\": 7,\n    \"email\": \"michael.lawson@reqres.in\",\n    \"first_name\": \"Michael\",\n    \"last_name\": \"Lawson\",\n    \"avatar\": \"https:\/\/reqres.in\/img\/faces\/7-image.jpg\"\n  },\n  {\n    \"id\": 8,\n    \"email\": \"lindsay.ferguson@reqres.in\",\n    \"first_name\": \"Lindsay\",\n    \"last_name\": \"Ferguson\",\n    \"avatar\": \"https:\/\/reqres.in\/img\/faces\/8-image.jpg\"\n  },\n  {\n    \"id\": 9,\n    \"email\": \"tobias.funke@reqres.in\",\n    \"first_name\": \"Tobias\",\n    \"last_name\": \"Funke\",\n    \"avatar\": \"https:\/\/reqres.in\/img\/faces\/9-image.jpg\"\n  },\n  {\n    \"id\": 10,\n    \"email\": \"byron.fields@reqres.in\",\n    \"first_name\": \"Byron\",\n    \"last_name\": \"Fields\",\n    \"avatar\": \"https:\/\/reqres.in\/img\/faces\/10-image.jpg\"\n  },\n  {\n    \"id\": 11,\n    \"email\": \"george.edwards@reqres.in\",\n    \"first_name\": \"George\",\n    \"last_name\": \"Edwards\",\n    \"avatar\": \"https:\/\/reqres.in\/img\/faces\/11-image.jpg\"\n  },\n  {\n    \"id\": 12,\n    \"email\": \"rachel.howell@reqres.in\",\n    \"first_name\": \"Rachel\",\n    \"last_name\": \"Howell\",\n    \"avatar\": \"https:\/\/reqres.in\/img\/faces\/12-image.jpg\"\n  }\n]\n \n"},{"result":{"nanos":26022700,"millis":26.0227,"status":"passed"},"step":{"line":13,"prefix":"And","index":4,"text":"print response.data[4]"},"stepLog":"21:04:24.164 [print] {\n  \"id\": 11,\n  \"email\": \"george.edwards@reqres.in\",\n  \"first_name\": \"George\",\n  \"last_name\": \"Edwards\",\n  \"avatar\": \"https:\/\/reqres.in\/img\/faces\/11-image.jpg\"\n}\n \n"},{"result":{"nanos":108715500,"millis":108.7155,"status":"passed"},"step":{"line":14,"prefix":"And","index":5,"text":"match response.data[0].first_name != null"}},{"result":{"nanos":10076100,"millis":10.0761,"status":"passed"},"step":{"line":15,"prefix":"And","index":6,"text":"match $.data[3].id == 10"}},{"result":{"nanos":2347300,"millis":2.3473,"status":"passed"},"step":{"line":16,"prefix":"And","index":7,"text":"match response.data[4].last_name == 'Edwards'"}},{"result":{"nanos":21370400,"millis":21.3704,"status":"passed"},"step":{"line":17,"prefix":"And","index":8,"text":"assert response.data.length == 6"}}],"executorName":"main","line":8,"name":"Perform get request for List User","description":"","durationMillis":2733.9286,"startTime":1669734261519,"failed":false,"refId":"[1:8]","endTime":1669734264307,"exampleIndex":-1},{"sectionIndex":1,"stepResults":[{"result":{"nanos":1453200,"millis":1.4532,"status":"passed"},"step":{"background":true,"line":4,"prefix":"*","index":0,"text":"url 'https:\/\/reqres.in\/api'"}},{"result":{"nanos":971800,"millis":0.9718,"status":"passed"},"step":{"background":true,"line":5,"prefix":"*","index":1,"text":"header Accept = 'application\/json'"}},{"result":{"nanos":895300,"millis":0.8953,"status":"passed"},"step":{"line":26,"prefix":"Given","index":0,"text":"path '\/users?page=2'"}},{"result":{"nanos":710728000,"millis":710.728,"status":"passed"},"step":{"line":27,"prefix":"When","index":1,"text":"method GET"},"stepLog":"21:04:24.337 request:\n1 > GET https:\/\/reqres.in\/api\/users%3Fpage=2\n1 > Accept: application\/json\n1 > Host: reqres.in\n1 > Connection: Keep-Alive\n1 > User-Agent: Apache-HttpClient\/4.5.13 (Java\/17.0.5)\n1 > Accept-Encoding: gzip,deflate\n\n\n21:04:25.031 response time in milliseconds: 690\n1 < 200\n1 < Date: Tue, 29 Nov 2022 15:04:25 GMT\n1 < Content-Type: application\/json; charset=utf-8\n1 < Transfer-Encoding: chunked\n1 < Connection: keep-alive\n1 < X-Powered-By: Express\n1 < Access-Control-Allow-Origin: *\n1 < Etag: W\/\"2c1-N6Rqerxquq2kgQhL51EiSg4x0R8\"\n1 < Via: 1.1 vegur\n1 < Cache-Control: max-age=14400\n1 < CF-Cache-Status: REVALIDATED\n1 < Report-To: {\"endpoints\":[{\"url\":\"https:\\\/\\\/a.nel.cloudflare.com\\\/report\\\/v3?s=HQg%2Bhi2%2FgJcLAYArvi80tQ5Y%2BMx8VYgZs64x7KqJkC88YGu1c7vKcwO0HKAAP0TGlXDux5tEWTCALviyJ2unXaLLmiLhYbZckVxkLetyHWtHuAuIjttMCYTgsA%3D%3D\"}],\"group\":\"cf-nel\",\"max_age\":604800}\n1 < NEL: {\"success_fraction\":0,\"report_to\":\"cf-nel\",\"max_age\":604800}\n1 < Vary: Accept-Encoding\n1 < Server: cloudflare\n1 < CF-RAY: 771c3c56b8a6a075-SIN\n{\"page\":1,\"per_page\":6,\"total\":12,\"total_pages\":2,\"data\":[{\"id\":1,\"name\":\"cerulean\",\"year\":2000,\"color\":\"#98B2D1\",\"pantone_value\":\"15-4020\"},{\"id\":2,\"name\":\"fuchsia rose\",\"year\":2001,\"color\":\"#C74375\",\"pantone_value\":\"17-2031\"},{\"id\":3,\"name\":\"true red\",\"year\":2002,\"color\":\"#BF1932\",\"pantone_value\":\"19-1664\"},{\"id\":4,\"name\":\"aqua sky\",\"year\":2003,\"color\":\"#7BC4C4\",\"pantone_value\":\"14-4811\"},{\"id\":5,\"name\":\"tigerlily\",\"year\":2004,\"color\":\"#E2583E\",\"pantone_value\":\"17-1456\"},{\"id\":6,\"name\":\"blue turquoise\",\"year\":2005,\"color\":\"#53B0AE\",\"pantone_value\":\"15-5217\"}],\"support\":{\"url\":\"https:\/\/reqres.in\/#support-heading\",\"text\":\"To keep ReqRes free, contributions towards server costs are appreciated!\"}}\n\n"},{"result":{"nanos":1234600,"millis":1.2346,"status":"passed"},"step":{"line":28,"prefix":"Then","index":2,"text":"status 200"}},{"result":{"nanos":14048400,"millis":14.0484,"status":"passed"},"step":{"line":29,"prefix":"*","index":3,"text":"print response.data[3]"},"stepLog":"21:04:25.059 [print] {\n  \"id\": 4,\n  \"name\": \"aqua sky\",\n  \"year\": 2003,\n  \"color\": \"#7BC4C4\",\n  \"pantone_value\": \"14-4811\"\n}\n \n"}],"executorName":"main","line":25,"name":"Get API with background","description":"","durationMillis":729.3313,"startTime":1669734264325,"failed":false,"refId":"[2:25]","endTime":1669734265059,"exampleIndex":-1},{"sectionIndex":2,"stepResults":[{"result":{"nanos":1437100,"millis":1.4371,"status":"passed"},"step":{"background":true,"line":4,"prefix":"*","index":0,"text":"url 'https:\/\/reqres.in\/api'"}},{"result":{"nanos":842600,"millis":0.8426,"status":"passed"},"step":{"background":true,"line":5,"prefix":"*","index":1,"text":"header Accept = 'application\/json'"}},{"result":{"nanos":1500800,"millis":1.5008,"status":"passed"},"step":{"line":32,"prefix":"Given","index":0,"text":"path '\/users'"}},{"result":{"nanos":5297600,"millis":5.2976,"status":"passed"},"step":{"line":33,"prefix":"And","index":1,"text":"param page = 2"}},{"result":{"nanos":294765700,"millis":294.7657,"status":"passed"},"step":{"line":34,"prefix":"When","index":2,"text":"method GET"},"stepLog":"21:04:25.122 request:\n1 > GET https:\/\/reqres.in\/api\/users?page=2\n1 > Accept: application\/json\n1 > Host: reqres.in\n1 > Connection: Keep-Alive\n1 > User-Agent: Apache-HttpClient\/4.5.13 (Java\/17.0.5)\n1 > Accept-Encoding: gzip,deflate\n\n\n21:04:25.409 response time in milliseconds: 286\n1 < 200\n1 < Date: Tue, 29 Nov 2022 15:04:26 GMT\n1 < Content-Type: application\/json; charset=utf-8\n1 < Transfer-Encoding: chunked\n1 < Connection: keep-alive\n1 < X-Powered-By: Express\n1 < Access-Control-Allow-Origin: *\n1 < Etag: W\/\"406-ut0vzoCuidvyMf8arZpMpJ6ZRDw\"\n1 < Via: 1.1 vegur\n1 < Cache-Control: max-age=14400\n1 < CF-Cache-Status: HIT\n1 < Age: 2213\n1 < Report-To: {\"endpoints\":[{\"url\":\"https:\\\/\\\/a.nel.cloudflare.com\\\/report\\\/v3?s=ASxAQJiKhKM6hrvVG6g4wSX7mBXP5Evyd43uUWwrWjv7f7kW4uRQtZbfw4tyCH%2FyKGrQP0lWjOCmAymTdIT947oJLzo5bud%2Bk9xEm9eLeGi9yyuqDW78DHFc7w%3D%3D\"}],\"group\":\"cf-nel\",\"max_age\":604800}\n1 < NEL: {\"success_fraction\":0,\"report_to\":\"cf-nel\",\"max_age\":604800}\n1 < Vary: Accept-Encoding\n1 < Server: cloudflare\n1 < CF-RAY: 771c3c5c09304822-SIN\n{\"page\":2,\"per_page\":6,\"total\":12,\"total_pages\":2,\"data\":[{\"id\":7,\"email\":\"michael.lawson@reqres.in\",\"first_name\":\"Michael\",\"last_name\":\"Lawson\",\"avatar\":\"https:\/\/reqres.in\/img\/faces\/7-image.jpg\"},{\"id\":8,\"email\":\"lindsay.ferguson@reqres.in\",\"first_name\":\"Lindsay\",\"last_name\":\"Ferguson\",\"avatar\":\"https:\/\/reqres.in\/img\/faces\/8-image.jpg\"},{\"id\":9,\"email\":\"tobias.funke@reqres.in\",\"first_name\":\"Tobias\",\"last_name\":\"Funke\",\"avatar\":\"https:\/\/reqres.in\/img\/faces\/9-image.jpg\"},{\"id\":10,\"email\":\"byron.fields@reqres.in\",\"first_name\":\"Byron\",\"last_name\":\"Fields\",\"avatar\":\"https:\/\/reqres.in\/img\/faces\/10-image.jpg\"},{\"id\":11,\"email\":\"george.edwards@reqres.in\",\"first_name\":\"George\",\"last_name\":\"Edwards\",\"avatar\":\"https:\/\/reqres.in\/img\/faces\/11-image.jpg\"},{\"id\":12,\"email\":\"rachel.howell@reqres.in\",\"first_name\":\"Rachel\",\"last_name\":\"Howell\",\"avatar\":\"https:\/\/reqres.in\/img\/faces\/12-image.jpg\"}],\"support\":{\"url\":\"https:\/\/reqres.in\/#support-heading\",\"text\":\"To keep ReqRes free, contributions towards server costs are appreciated!\"}}\n\n"},{"result":{"nanos":21200,"millis":0.0212,"status":"passed"},"step":{"line":35,"prefix":"Then","index":3,"text":"status 200"}},{"result":{"nanos":3804300,"millis":3.8043,"status":"passed"},"step":{"line":36,"prefix":"And","index":4,"text":"print responseHeaders"},"stepLog":"21:04:25.415 [print] {\n  \"Date\": [\n    \"Tue, 29 Nov 2022 15:04:26 GMT\"\n  ],\n  \"Content-Type\": [\n    \"application\/json; charset=utf-8\"\n  ],\n  \"Transfer-Encoding\": [\n    \"chunked\"\n  ],\n  \"Connection\": [\n    \"keep-alive\"\n  ],\n  \"X-Powered-By\": [\n    \"Express\"\n  ],\n  \"Access-Control-Allow-Origin\": [\n    \"*\"\n  ],\n  \"Etag\": [\n    \"W\/\\\"406-ut0vzoCuidvyMf8arZpMpJ6ZRDw\\\"\"\n  ],\n  \"Via\": [\n    \"1.1 vegur\"\n  ],\n  \"Cache-Control\": [\n    \"max-age=14400\"\n  ],\n  \"CF-Cache-Status\": [\n    \"HIT\"\n  ],\n  \"Age\": [\n    \"2213\"\n  ],\n  \"Report-To\": [\n    \"{\\\"endpoints\\\":[{\\\"url\\\":\\\"https:\\\\\/\\\\\/a.nel.cloudflare.com\\\\\/report\\\\\/v3?s=ASxAQJiKhKM6hrvVG6g4wSX7mBXP5Evyd43uUWwrWjv7f7kW4uRQtZbfw4tyCH%2FyKGrQP0lWjOCmAymTdIT947oJLzo5bud%2Bk9xEm9eLeGi9yyuqDW78DHFc7w%3D%3D\\\"}],\\\"group\\\":\\\"cf-nel\\\",\\\"max_age\\\":604800}\"\n  ],\n  \"NEL\": [\n    \"{\\\"success_fraction\\\":0,\\\"report_to\\\":\\\"cf-nel\\\",\\\"max_age\\\":604800}\"\n  ],\n  \"Vary\": [\n    \"Accept-Encoding\"\n  ],\n  \"Server\": [\n    \"cloudflare\"\n  ],\n  \"CF-RAY\": [\n    \"771c3c5c09304822-SIN\"\n  ],\n  \"Set-Cookie\": [\n  ]\n}\n \n"},{"result":{"nanos":4853400,"millis":4.8534,"status":"passed"},"step":{"line":37,"prefix":"And","index":5,"text":"print responseTime"},"stepLog":"21:04:25.420 [print] 286 \n"},{"result":{"nanos":1984700,"millis":1.9847,"status":"passed"},"step":{"line":38,"prefix":"And","index":6,"text":"print responseStatus"},"stepLog":"21:04:25.422 [print] 200 \n"},{"result":{"nanos":3011400,"millis":3.0114,"status":"passed"},"step":{"line":39,"prefix":"And","index":7,"text":"print responseCookies"},"stepLog":"21:04:25.426 [print] {\n}\n \n"}],"executorName":"main","line":31,"name":"Get API with background but with path and param separated","description":"","durationMillis":317.5188,"startTime":1669734265104,"failed":false,"refId":"[3:31]","endTime":1669734265426,"exampleIndex":-1},{"sectionIndex":3,"stepResults":[{"result":{"nanos":1363000,"millis":1.363,"status":"passed"},"step":{"background":true,"line":4,"prefix":"*","index":0,"text":"url 'https:\/\/reqres.in\/api'"}},{"result":{"nanos":678400,"millis":0.6784,"status":"passed"},"step":{"background":true,"line":5,"prefix":"*","index":1,"text":"header Accept = 'application\/json'"}},{"result":{"nanos":262800,"millis":0.2628,"status":"passed"},"step":{"line":43,"prefix":"Given","index":0,"text":"path '\/users?page=2'"}},{"result":{"nanos":709740700,"millis":709.7407,"status":"passed"},"step":{"line":44,"prefix":"When","index":1,"text":"method GET"},"stepLog":"21:04:25.448 request:\n1 > GET https:\/\/reqres.in\/api\/users%3Fpage=2\n1 > Accept: application\/json\n1 > Host: reqres.in\n1 > Connection: Keep-Alive\n1 > User-Agent: Apache-HttpClient\/4.5.13 (Java\/17.0.5)\n1 > Accept-Encoding: gzip,deflate\n\n\n21:04:26.147 response time in milliseconds: 696\n1 < 200\n1 < Date: Tue, 29 Nov 2022 15:04:26 GMT\n1 < Content-Type: application\/json; charset=utf-8\n1 < Transfer-Encoding: chunked\n1 < Connection: keep-alive\n1 < X-Powered-By: Express\n1 < Access-Control-Allow-Origin: *\n1 < Etag: W\/\"2c1-N6Rqerxquq2kgQhL51EiSg4x0R8\"\n1 < Via: 1.1 vegur\n1 < Cache-Control: max-age=14400\n1 < CF-Cache-Status: REVALIDATED\n1 < Report-To: {\"endpoints\":[{\"url\":\"https:\\\/\\\/a.nel.cloudflare.com\\\/report\\\/v3?s=fkS5a9%2FQdAiDFEBCQEtR3fvmEhnt7dW7OKxezcZUFuqFShmgmiNujI3fI0XYHY6%2B3dvAdpNweNenRk7ahKsf6tQwYBggALN6PWzAm0%2BOv9b9rfBbsRULAfbTKA%3D%3D\"}],\"group\":\"cf-nel\",\"max_age\":604800}\n1 < NEL: {\"success_fraction\":0,\"report_to\":\"cf-nel\",\"max_age\":604800}\n1 < Vary: Accept-Encoding\n1 < Server: cloudflare\n1 < CF-RAY: 771c3c5d98ef471b-SIN\n{\"page\":1,\"per_page\":6,\"total\":12,\"total_pages\":2,\"data\":[{\"id\":1,\"name\":\"cerulean\",\"year\":2000,\"color\":\"#98B2D1\",\"pantone_value\":\"15-4020\"},{\"id\":2,\"name\":\"fuchsia rose\",\"year\":2001,\"color\":\"#C74375\",\"pantone_value\":\"17-2031\"},{\"id\":3,\"name\":\"true red\",\"year\":2002,\"color\":\"#BF1932\",\"pantone_value\":\"19-1664\"},{\"id\":4,\"name\":\"aqua sky\",\"year\":2003,\"color\":\"#7BC4C4\",\"pantone_value\":\"14-4811\"},{\"id\":5,\"name\":\"tigerlily\",\"year\":2004,\"color\":\"#E2583E\",\"pantone_value\":\"17-1456\"},{\"id\":6,\"name\":\"blue turquoise\",\"year\":2005,\"color\":\"#53B0AE\",\"pantone_value\":\"15-5217\"}],\"support\":{\"url\":\"https:\/\/reqres.in\/#support-heading\",\"text\":\"To keep ReqRes free, contributions towards server costs are appreciated!\"}}\n\n"},{"result":{"nanos":61900,"millis":0.0619,"status":"passed"},"step":{"line":45,"prefix":"Then","index":2,"text":"status 200"}},{"result":{"nanos":7973500,"millis":7.9735,"status":"passed"},"step":{"line":46,"prefix":"And","index":3,"text":"print response.data[0].name"},"stepLog":"21:04:26.161 [print] cerulean \n"},{"result":{"nanos":8692700,"millis":8.6927,"status":"passed"},"step":{"line":47,"prefix":"And","index":4,"text":"print response.data[0].year"},"stepLog":"21:04:26.170 [print] 2000 \n"}],"executorName":"main","line":42,"name":"Get API with getting a specified attribute","description":"","durationMillis":728.773,"startTime":1669734265439,"failed":false,"refId":"[4:42]","endTime":1669734266171,"exampleIndex":-1},{"sectionIndex":4,"stepResults":[{"result":{"nanos":2507500,"millis":2.5075,"status":"passed"},"step":{"background":true,"line":4,"prefix":"*","index":0,"text":"url 'https:\/\/reqres.in\/api'"}},{"result":{"nanos":2591600,"millis":2.5916,"status":"passed"},"step":{"background":true,"line":5,"prefix":"*","index":1,"text":"header Accept = 'application\/json'"}},{"result":{"nanos":4460300,"millis":4.4603,"status":"passed"},"step":{"line":50,"prefix":"Given","index":0,"text":"path '\/users\/2'"}},{"result":{"nanos":214239300,"millis":214.2393,"status":"passed"},"step":{"line":51,"prefix":"When","index":1,"text":"method  GET"},"stepLog":"21:04:26.232 request:\n1 > GET https:\/\/reqres.in\/api\/users\/2\n1 > Accept: application\/json\n1 > Host: reqres.in\n1 > Connection: Keep-Alive\n1 > User-Agent: Apache-HttpClient\/4.5.13 (Java\/17.0.5)\n1 > Accept-Encoding: gzip,deflate\n\n\n21:04:26.433 response time in milliseconds: 200\n1 < 200\n1 < Date: Tue, 29 Nov 2022 15:04:27 GMT\n1 < Content-Type: application\/json; charset=utf-8\n1 < Transfer-Encoding: chunked\n1 < Connection: keep-alive\n1 < X-Powered-By: Express\n1 < Access-Control-Allow-Origin: *\n1 < Etag: W\/\"118-pbdwwFo9SKNhD3Lx5iHJyngpq00\"\n1 < Via: 1.1 vegur\n1 < Cache-Control: max-age=14400\n1 < CF-Cache-Status: HIT\n1 < Age: 4577\n1 < Report-To: {\"endpoints\":[{\"url\":\"https:\\\/\\\/a.nel.cloudflare.com\\\/report\\\/v3?s=94bZdTPdW7NAp39eP7mMKNbC%2FCFneH7pR11mU%2FAm7VkMDnr6fNZIUU3sdnduiYziXpjoesmPmoSzx13%2FMG2j0TkJQ1Ds9ygK%2FilWABJkHU4PDZzUMWbZhtyJTQ%3D%3D\"}],\"group\":\"cf-nel\",\"max_age\":604800}\n1 < NEL: {\"success_fraction\":0,\"report_to\":\"cf-nel\",\"max_age\":604800}\n1 < Vary: Accept-Encoding\n1 < Server: cloudflare\n1 < CF-RAY: 771c3c627f734685-SIN\n{\"data\":{\"id\":2,\"email\":\"janet.weaver@reqres.in\",\"first_name\":\"Janet\",\"last_name\":\"Weaver\",\"avatar\":\"https:\/\/reqres.in\/img\/faces\/2-image.jpg\"},\"support\":{\"url\":\"https:\/\/reqres.in\/#support-heading\",\"text\":\"To keep ReqRes free, contributions towards server costs are appreciated!\"}}\n\n"},{"result":{"nanos":26900,"millis":0.0269,"status":"passed"},"step":{"line":52,"prefix":"Then","index":2,"text":"status 200"}},{"result":{"nanos":1819400,"millis":1.8194,"status":"passed"},"step":{"line":53,"prefix":"And","index":3,"text":"print response.data"},"stepLog":"21:04:26.436 [print] {\n  \"id\": 2,\n  \"email\": \"janet.weaver@reqres.in\",\n  \"first_name\": \"Janet\",\n  \"last_name\": \"Weaver\",\n  \"avatar\": \"https:\/\/reqres.in\/img\/faces\/2-image.jpg\"\n}\n \n"}],"executorName":"main","line":49,"name":"Get API with single user","description":"","durationMillis":225.645,"startTime":1669734266206,"failed":false,"refId":"[5:49]","endTime":1669734266437,"exampleIndex":-1}],"callDepth":0,"name":"Perform GET request","description":"","resultDate":"2022-11-29 09:04:26 PM","durationMillis":4735.1967,"passedCount":5}