{"failedCount":1,"prefixedPath":"src\/test\/java\/Sample\/GetUser.feature","packageQualifiedName":"src.test.java.Sample.GetUser","loopIndex":-1,"relativePath":"src\/test\/java\/Sample\/GetUser.feature","scenarioResults":[{"sectionIndex":3,"stepResults":[{"result":{"nanos":167055000,"millis":167.055,"status":"passed"},"step":{"background":true,"line":4,"prefix":"*","index":0,"text":"url 'https:\/\/reqres.in\/api'"}},{"result":{"nanos":928900,"millis":0.9289,"status":"passed"},"step":{"line":33,"prefix":"Given","index":0,"text":"path '\/users?page=2'"}},{"result":{"nanos":1438627500,"millis":1438.6275,"status":"passed"},"step":{"line":34,"prefix":"When","index":1,"text":"method GET"},"stepLog":"18:41:46.819 request:\n1 > GET https:\/\/reqres.in\/api\/users%3Fpage=2\n1 > Host: reqres.in\n1 > Connection: Keep-Alive\n1 > User-Agent: Apache-HttpClient\/4.5.13 (Java\/17.0.5)\n1 > Accept-Encoding: gzip,deflate\n\n\n18:41:47.570 response time in milliseconds: 743\n1 < 200\n1 < Date: Tue, 29 Nov 2022 12:41:48 GMT\n1 < Content-Type: application\/json; charset=utf-8\n1 < Transfer-Encoding: chunked\n1 < Connection: keep-alive\n1 < X-Powered-By: Express\n1 < Access-Control-Allow-Origin: *\n1 < Etag: W\/\"2c1-N6Rqerxquq2kgQhL51EiSg4x0R8\"\n1 < Via: 1.1 vegur\n1 < Cache-Control: max-age=14400\n1 < CF-Cache-Status: HIT\n1 < Age: 4513\n1 < Report-To: {\"endpoints\":[{\"url\":\"https:\\\/\\\/a.nel.cloudflare.com\\\/report\\\/v3?s=eO3vlzDd7bscKx851efremAIeZ1PS5U8ST%2FnfCFXe7Z3VwtXdC9bswCN1JH89AsxD5xJ%2F1xu51n%2B%2FYW5Sk7BFGr0wrqFTSEqH71KLTKIImULdvvJrMOQ%2B%2F451A%3D%3D\"}],\"group\":\"cf-nel\",\"max_age\":604800}\n1 < NEL: {\"success_fraction\":0,\"report_to\":\"cf-nel\",\"max_age\":604800}\n1 < Vary: Accept-Encoding\n1 < Server: cloudflare\n1 < CF-RAY: 771b6b6bb8c54943-SIN\n{\"page\":1,\"per_page\":6,\"total\":12,\"total_pages\":2,\"data\":[{\"id\":1,\"name\":\"cerulean\",\"year\":2000,\"color\":\"#98B2D1\",\"pantone_value\":\"15-4020\"},{\"id\":2,\"name\":\"fuchsia rose\",\"year\":2001,\"color\":\"#C74375\",\"pantone_value\":\"17-2031\"},{\"id\":3,\"name\":\"true red\",\"year\":2002,\"color\":\"#BF1932\",\"pantone_value\":\"19-1664\"},{\"id\":4,\"name\":\"aqua sky\",\"year\":2003,\"color\":\"#7BC4C4\",\"pantone_value\":\"14-4811\"},{\"id\":5,\"name\":\"tigerlily\",\"year\":2004,\"color\":\"#E2583E\",\"pantone_value\":\"17-1456\"},{\"id\":6,\"name\":\"blue turquoise\",\"year\":2005,\"color\":\"#53B0AE\",\"pantone_value\":\"15-5217\"}],\"support\":{\"url\":\"https:\/\/reqres.in\/#support-heading\",\"text\":\"To keep ReqRes free, contributions towards server costs are appreciated!\"}}\n\n"},{"result":{"nanos":39800,"millis":0.0398,"status":"passed"},"step":{"line":35,"prefix":"Then","index":2,"text":"status 200"}},{"result":{"nanos":222677800,"millis":222.6778,"status":"passed"},"step":{"line":36,"prefix":"And","index":3,"text":"print response.data[0].email"},"stepLog":"18:41:47.874 [print] null \n"},{"result":{"nanos":36225100,"errorMessage":"js failed:\n>>>>\n01: karate.log('[print]',response.data[1].\"first_name\")\n<<<<\norg.graalvm.polyglot.PolyglotException: SyntaxError: Unnamed:1:39 Expected ident but found first_name\r\nkarate.log('[print]',response.data[1].\"first_name\")\r\n                                       ^\n\n- org.graalvm.polyglot.Context.eval(Context.java:425)\n- com.intuit.karate.graal.JsEngine.evalForValue(JsEngine.java:139)\n- com.intuit.karate.graal.JsEngine.eval(JsEngine.java:135)\n- com.intuit.karate.core.ScenarioEngine.evalJs(ScenarioEngine.java:1190)\n- com.intuit.karate.core.ScenarioEngine.print(ScenarioEngine.java:242)\n- com.intuit.karate.ScenarioActions.print(ScenarioActions.java:308)\n- java.base\/jdk.internal.reflect.NativeMethodAccessorImpl.invoke0(Native Method)\n\nsrc\/test\/java\/Sample\/GetUser.feature:37","millis":36.2251,"status":"failed"},"step":{"line":37,"prefix":"And","index":4,"text":"print response.data[1].\"first_name\""},"stepLog":"18:41:47.917 src\/test\/java\/Sample\/GetUser.feature:37\nAnd print response.data[1].\"first_name\"\njs failed:\n>>>>\n01: karate.log('[print]',response.data[1].\"first_name\")\n<<<<\norg.graalvm.polyglot.PolyglotException: SyntaxError: Unnamed:1:39 Expected ident but found first_name\r\nkarate.log('[print]',response.data[1].\"first_name\")\r\n                                       ^\n\n- org.graalvm.polyglot.Context.eval(Context.java:425)\n- com.intuit.karate.graal.JsEngine.evalForValue(JsEngine.java:139)\n- com.intuit.karate.graal.JsEngine.eval(JsEngine.java:135)\n- com.intuit.karate.core.ScenarioEngine.evalJs(ScenarioEngine.java:1190)\n- com.intuit.karate.core.ScenarioEngine.print(ScenarioEngine.java:242)\n- com.intuit.karate.ScenarioActions.print(ScenarioActions.java:308)\n- java.base\/jdk.internal.reflect.NativeMethodAccessorImpl.invoke0(Native Method)\n\nsrc\/test\/java\/Sample\/GetUser.feature:37\n"}],"line":32,"description":"","durationMillis":1865.5541,"failed":true,"error":"js failed:\n>>>>\n01: karate.log('[print]',response.data[1].\"first_name\")\n<<<<\norg.graalvm.polyglot.PolyglotException: SyntaxError: Unnamed:1:39 Expected ident but found first_name\r\nkarate.log('[print]',response.data[1].\"first_name\")\r\n                                       ^\n\n- org.graalvm.polyglot.Context.eval(Context.java:425)\n- com.intuit.karate.graal.JsEngine.evalForValue(JsEngine.java:139)\n- com.intuit.karate.graal.JsEngine.eval(JsEngine.java:135)\n- com.intuit.karate.core.ScenarioEngine.evalJs(ScenarioEngine.java:1190)\n- com.intuit.karate.core.ScenarioEngine.print(ScenarioEngine.java:242)\n- com.intuit.karate.ScenarioActions.print(ScenarioActions.java:308)\n- java.base\/jdk.internal.reflect.NativeMethodAccessorImpl.invoke0(Native Method)\n\nsrc\/test\/java\/Sample\/GetUser.feature:37","executorName":"main","name":"Get API with getting a specified attribute","startTime":1669725706002,"refId":"[4:32]","endTime":1669725707917,"exampleIndex":-1}],"callDepth":0,"name":"Perform GET request","description":"","resultDate":"2022-11-29 06:41:47 PM","durationMillis":1865.5541,"passedCount":0}