{"failedCount":1,"prefixedPath":"src\/test\/java\/Sample\/GetUser.feature","packageQualifiedName":"src.test.java.Sample.GetUser","loopIndex":-1,"relativePath":"src\/test\/java\/Sample\/GetUser.feature","scenarioResults":[{"sectionIndex":0,"stepResults":[{"result":{"nanos":189973700,"millis":189.9737,"status":"passed"},"step":{"line":4,"prefix":"Given","index":0,"text":"url 'https:\/\/reqres.in\/api\/users?page=2'"}},{"result":{"nanos":1709190800,"millis":1709.1908,"status":"passed"},"step":{"line":5,"prefix":"When","index":1,"text":"method Get"},"stepLog":"16:26:51.284 request:\n1 > GET https:\/\/reqres.in\/api\/users?page=2\n1 > Host: reqres.in\n1 > Connection: Keep-Alive\n1 > User-Agent: Apache-HttpClient\/4.5.13 (Java\/17.0.5)\n1 > Accept-Encoding: gzip,deflate\n\n\n16:26:52.414 response time in milliseconds: 1124\n1 < 200\n1 < Date: Tue, 29 Nov 2022 10:26:52 GMT\n1 < Content-Type: application\/json; charset=utf-8\n1 < Transfer-Encoding: chunked\n1 < Connection: keep-alive\n1 < X-Powered-By: Express\n1 < Access-Control-Allow-Origin: *\n1 < Etag: W\/\"406-ut0vzoCuidvyMf8arZpMpJ6ZRDw\"\n1 < Via: 1.1 vegur\n1 < Cache-Control: max-age=14400\n1 < CF-Cache-Status: REVALIDATED\n1 < Report-To: {\"endpoints\":[{\"url\":\"https:\\\/\\\/a.nel.cloudflare.com\\\/report\\\/v3?s=tCWCae11jhHRZyC8%2BjphA0WqxcrCiDGENK%2FmVVm6ClwZKgf%2FJSKGlDJeBOTcyZRSfbbq6KiWJRkoRyAzDTujOy5Po1urRy%2BOhUiDbxoRLBRHIZR85%2FGq3kUTvQ%3D%3D\"}],\"group\":\"cf-nel\",\"max_age\":604800}\n1 < NEL: {\"success_fraction\":0,\"report_to\":\"cf-nel\",\"max_age\":604800}\n1 < Vary: Accept-Encoding\n1 < Server: cloudflare\n1 < CF-RAY: 771aa5c50808470f-SIN\n{\"page\":2,\"per_page\":6,\"total\":12,\"total_pages\":2,\"data\":[{\"id\":7,\"email\":\"michael.lawson@reqres.in\",\"first_name\":\"Michael\",\"last_name\":\"Lawson\",\"avatar\":\"https:\/\/reqres.in\/img\/faces\/7-image.jpg\"},{\"id\":8,\"email\":\"lindsay.ferguson@reqres.in\",\"first_name\":\"Lindsay\",\"last_name\":\"Ferguson\",\"avatar\":\"https:\/\/reqres.in\/img\/faces\/8-image.jpg\"},{\"id\":9,\"email\":\"tobias.funke@reqres.in\",\"first_name\":\"Tobias\",\"last_name\":\"Funke\",\"avatar\":\"https:\/\/reqres.in\/img\/faces\/9-image.jpg\"},{\"id\":10,\"email\":\"byron.fields@reqres.in\",\"first_name\":\"Byron\",\"last_name\":\"Fields\",\"avatar\":\"https:\/\/reqres.in\/img\/faces\/10-image.jpg\"},{\"id\":11,\"email\":\"george.edwards@reqres.in\",\"first_name\":\"George\",\"last_name\":\"Edwards\",\"avatar\":\"https:\/\/reqres.in\/img\/faces\/11-image.jpg\"},{\"id\":12,\"email\":\"rachel.howell@reqres.in\",\"first_name\":\"Rachel\",\"last_name\":\"Howell\",\"avatar\":\"https:\/\/reqres.in\/img\/faces\/12-image.jpg\"}],\"support\":{\"url\":\"https:\/\/reqres.in\/#support-heading\",\"text\":\"To keep ReqRes free, contributions towards server costs are appreciated!\"}}\n\n"},{"result":{"nanos":46900,"millis":0.0469,"status":"passed"},"step":{"line":6,"prefix":"Then","index":2,"text":"status 200"}},{"result":{"nanos":167376300,"errorMessage":"match failed: EQUALS\n  $ | not equal (NUMBER:NUMBER)\n  2\n  3\n\nsrc\/test\/java\/Sample\/GetUser.feature:7","millis":167.3763,"status":"failed"},"step":{"line":7,"prefix":"And","index":3,"text":"match response.page == 3"},"stepLog":"16:26:52.640 src\/test\/java\/Sample\/GetUser.feature:7\nAnd match response.page == 3\nmatch failed: EQUALS\n  $ | not equal (NUMBER:NUMBER)\n  2\n  3\n\nsrc\/test\/java\/Sample\/GetUser.feature:7\n"},{"result":{"nanos":0,"millis":0.0,"status":"skipped"},"step":{"line":8,"prefix":"And","index":4,"text":"match response.per_page == 8"}}],"line":3,"description":"","durationMillis":2066.5877,"failed":true,"error":"match failed: EQUALS\n  $ | not equal (NUMBER:NUMBER)\n  2\n  3\n\nsrc\/test\/java\/Sample\/GetUser.feature:7","executorName":"main","name":"Perform get request for List User","startTime":1669717610522,"refId":"[1:3]","endTime":1669717612640,"exampleIndex":-1}],"callDepth":0,"name":"Perform GET request","description":"","resultDate":"2022-11-29 04:26:52 PM","durationMillis":2066.5877,"passedCount":0}